x y
0 724.2779819
1 1326.30561086
2 1670.81118925
3 21884.89425808
4 19068.07296147
5 19065.96989156
6 18845.42956316
7 7698.83347868
8 5553.78286446
9 4068.97630153
10 3751.61112706
11 3511.27231437
12 2909.63072156
13 1279.52332564
14 1005.40933676
15 954.19893944
16 578.7462475
17 586.63773453
18 566.86104977
19 535.23726802
20 496.405769
21 472.77703733
22 340.77342952
23 277.66097533
24 269.6834544
25 233.00725734
26 233.19460459
27 238.9434817
28 222.96814276
29 145.52844452
30 128.84948959
31 121.46251591
32 106.96651676
33 81.98605015
34 72.09617177
35 68.69428722
36 66.49882746
37 67.1783149
38 59.60401986
39 56.24779664
40 57.92005292
41 52.66941476
42 49.58895424
43 49.88893502
44 50.30126386
45 48.68531
46 52.6899733
47 53.63485127
48 55.05689132
49 54.33418952
50 57.34988074
51 51.78040007
52 53.52809876
53 53.19498665
54 53.00737002
55 53.00737002
56 53.00737002
57 53.00737002
58 53.00737002
59 53.00737002
60 53.00737002
61 53.00737002
62 53.00737002
63 53.00737002
64 53.00737002
65 53.00737002
66 53.00737002
67 53.00737002
68 53.00737002
69 53.00737002
70 53.00737002
71 53.00737002
72 53.00737002
73 53.00737002
74 53.00737002
75 53.00737002
76 53.00737002
77 53.00737002
78 53.00737002
79 53.00737002
80 53.00737002
81 53.00737002
82 53.00737002
83 53.00737002
84 53.00737002
85 53.00737002
86 53.66951778
87 53.66951778
88 53.66951778
89 53.66951778
90 53.66951778
91 53.66951778
92 52.30198114
93 48.23021416
94 48.23021416
95 48.19204043
96 48.4345985
97 48.4345985
98 48.4345985
99 47.68952336
100 47.68952336
101 47.5023413
102 48.55864764
103 49.05928754
104 48.7525832
105 48.7525832
106 48.80685726
107 47.66969916
108 47.66969916
109 47.66969916
110 47.66969916
111 47.61179531
112 48.16012562
113 48.16012562
114 47.42788086
115 36.57928079
116 34.78564803
117 33.85273801
118 34.60061947
119 35.14233323
120 34.68858584
121 33.65849674
122 35.01654819
123 35.01654819
124 35.01654819
125 34.61395395
126 34.61395395
127 34.30547975
128 33.78647121
129 33.78647121
130 33.30341796
131 33.30341796
132 33.30341796
133 33.30341796
134 33.30341796
135 33.30341796
136 33.30341796
137 33.30341796
138 33.30341796
139 33.29218488
140 33.29218488
141 33.29218488
142 33.29218488
143 33.29218488
144 33.35349492
145 33.35349492
146 33.35153881
147 32.26978521
148 32.26978521
149 32.26978521
150 31.98352064
151 31.98352064
152 31.98352064
153 31.23877945
154 31.23877945
155 31.55271605
156 31.55271605
157 31.55271605
158 31.55271605
159 31.79441172
160 31.79441172
161 31.79441172
162 31.79441172
163 31.76690479
164 30.98157107
165 31.29220528
166 31.28682614
167 31.28682614
168 33.22273971
169 32.25591436
170 32.58129807
171 32.35511912
172 32.45684069
173 32.8093809
174 32.79430638
175 32.79430638
176 35.20811058
177 35.28189805
178 35.28189805
179 35.60394849
180 35.60394849
181 35.60394849
182 35.60394849
183 35.60394849
184 34.61965505
185 34.61965505
186 34.61965505
187 34.83704483
188 34.10333633
189 34.10333633
190 34.58840719
191 34.58840719
192 34.58840719
193 32.58737883
194 32.98426887
195 33.22704336
196 33.09873804
197 33.09873804
198 32.69975644
199 32.69975644
200 32.69975644
201 33.89744147
202 33.89744147
203 32.67815065
204 32.67815065
205 32.67815065
206 32.67815065
207 32.67815065
208 32.67815065
209 32.67815065
210 32.54232387
211 32.54232387
212 32.54232387
213 32.54232387
214 32.54232387
215 33.06285221
216 33.06285221
217 33.06285221
218 33.06285221
219 32.99798938
220 33.45163261
221 33.45163261
222 33.63217294
223 33.63217294
224 33.26507877
225 33.44296038
226 33.31844307
227 33.31844307
228 33.31844307
229 33.31844307
230 33.31844307
231 33.43230139
232 32.96526103
233 33.18853829
234 33.23604195
235 33.23604195
236 33.23604195
237 32.35490856
238 32.37815493
239 33.26959018
240 30.12467987
241 29.87830247
242 29.87830247
243 29.87830247
244 29.87830247
245 26.92543304
246 27.54554846
247 27.54554846
248 27.72957694
249 28.53198672
250 28.53198672
251 28.53198672
252 28.53198672
253 28.53198672
254 28.26589238
255 28.52337449
256 27.62521232
257 27.62521232
258 27.62521232
259 27.62521232
260 27.62521232
261 27.13431246
262 27.0831393
263 27.42260811
264 27.42260811
265 27.59349451
266 27.56708621
267 28.91880431
268 28.91880431
269 28.77171181
270 28.77171181
271 28.77171181
272 28.77171181
273 28.77171181
274 28.77171181
275 28.77171181
276 28.77171181
277 28.77171181
278 28.77171181
279 28.2739478
280 28.36147734
281 29.85761285
282 29.85761285
283 29.85761285
284 29.85761285
285 29.85761285
286 30.03209706
287 29.64444094
288 29.08387268
289 27.32809757
290 27.32809757
291 27.32809757
292 27.3721175
293 28.19832921
294 28.19832921
295 27.83889871
296 27.83889871
297 27.83889871
298 30.06419096
299 29.77021954
300 31.97857135
301 31.6563086
302 31.05352149
303 30.86882822
304 30.86882822
305 30.86882822
306 31.71324119
307 31.71324119
308 31.71324119
309 33.32097595
310 32.2717227
311 32.2717227
312 32.52762353
313 32.52762353
314 31.49220753
315 31.49220753
316 31.49220753
317 31.32656002
318 31.32656002
319 31.44468558
320 31.44468558
321 31.44468558
322 32.13448535
323 32.13448535
324 32.13448535
325 32.13448535
326 32.04337694
327 32.25670092
328 32.52108969
329 32.33541794
330 31.69053589
331 31.69053589
332 31.69053589
333 31.571971
334 31.571971
335 31.571971
336 31.29661326
337 31.25651295
338 31.25651295
339 31.25651295
340 31.23393914
341 31.23393914
342 31.23393914
343 30.94194954
344 30.30956376
345 29.610001
346 29.610001
347 29.610001
348 29.33285806
349 29.23714899
350 29.73336195
351 28.38272297
352 28.38272297
353 28.38272297
354 28.38272297
355 28.38272297
356 29.151735
357 29.151735
358 29.151735
359 28.05204319
360 28.05204319
361 28.05204319
362 28.05204319
363 28.05204319
364 27.82724671
365 28.67114035
366 28.35983292
367 28.35983292
368 28.72301939
369 28.72301939
370 30.33007062
371 30.33007062
372 30.33007062
373 30.33007062
374 30.36471411
375 30.18389268
376 30.18389268
377 30.52053961
378 30.52053961
379 34.56002324
380 34.56002324
381 34.56002324
382 34.95136892
383 35.93893519
384 35.93893519
385 34.34309176
386 34.76412057
387 31.78236164
388 31.78236164
389 31.78236164
390 32.16738021
391 31.85058423
392 32.28736074
393 32.28736074
394 33.04567055
395 33.04567055
396 33.04567055
397 33.04567055
398 33.04567055
399 33.04567055
400 33.04567055
401 33.04567055
402 32.89893748
403 32.89893748
404 33.13532586
405 33.13532586
406 33.13532586
407 32.85369067
408 32.85369067
409 32.85369067
410 32.59219121
411 32.59219121
412 32.28209124
413 30.5861526
414 30.57064483
415 30.88108779
416 35.44335001
417 35.44335001
418 35.65566676
419 36.45328437
420 36.45328437
421 36.45328437
422 36.45328437
423 36.45328437
424 35.12011572
425 36.15811156
426 36.15811156
427 36.15811156
428 36.81654694
429 36.19761248
430 36.19761248
431 35.52106777
432 35.99179111
433 35.99179111
434 35.99179111
435 35.35860237
436 35.35860237
437 35.31325952
438 34.90842379
439 34.90842379
440 34.90842379
441 34.97746645
442 35.29521396
443 35.29521396
444 35.32725273
445 35.01395349
446 35.01395349
447 34.85242083
448 34.85242083
449 34.85242083
450 34.85242083
451 34.85242083
452 34.85242083
453 34.85242083
454 34.05742311
455 34.05742311
456 34.05742311
457 33.78623952
458 33.78623952
459 33.78623952
460 33.78623952
461 33.78623952
462 33.78623952
463 34.23545386
464 34.23545386
465 33.78046434
466 33.78046434
467 33.78046434
468 32.9120737
469 31.64664691
470 31.64664691
471 31.64664691
472 32.04169926
473 31.90029722
474 31.90029722
475 31.97983432
476 31.97983432
477 31.97983432
478 31.97983432
479 31.77399881
480 31.77399881
481 34.21507704
482 34.42097551
483 32.20604834
484 32.02575053
485 31.52809474
486 39.66448601
487 39.66448601
488 39.73538926
489 39.73538926
490 39.73538926
491 39.73538926
492 38.81185011
493 38.81185011
494 39.20625366
495 39.20625366
496 39.95372846
497 39.95372846
498 39.95372846
499 40.06336713
500 40.06336713
501 38.60307331
502 38.60307331
503 40.24702169
504 40.24702169
505 40.24702169
506 39.87466012
507 41.0087148
508 41.78067565
509 41.78067565
510 41.78067565
511 41.88664601
512 41.88664601
513 41.88664601
514 41.95179347
515 42.68145892
516 42.68145892
517 42.50932007
518 42.83790165
519 42.83790165
520 42.83790165
521 42.83790165
522 42.83790165
523 42.90957477
524 42.97598671
525 42.97598671
526 42.97598671
527 42.97598671
528 43.11707779
529 43.10030274
530 42.80580668
531 40.56422675
532 40.56422675
533 40.56422675
534 38.73005922
535 38.73005922
536 38.73005922
537 38.73005922
538 38.44699613
539 38.44699613
540 38.39548595
541 38.25350839
542 38.25350839
543 38.25350839
544 38.25350839
545 31.62990023
546 31.32012354
547 31.32012354
548 31.26098816
549 31.3740412
550 31.3740412
551 30.9693545
552 30.9693545
553 30.81393313
554 30.81393313
555 30.81393313
556 30.30532999
557 30.30532999
558 29.53772195
559 29.41467954
560 28.30557461
561 28.30557461
562 28.30557461
563 27.05887979
564 26.08153294
565 26.08153294
566 26.08153294
567 26.08153294
568 26.08153294
569 26.08153294
570 26.14802149
571 26.14802149
572 26.35227988
573 26.1705471
574 25.61415304
575 25.61415304
576 25.61415304
577 25.61415304
578 25.61415304
579 26.02066548
580 26.33014751
581 26.33014751
582 26.33014751
583 25.45759244
584 25.20914098
585 25.20914098
586 25.20914098
587 24.90717831
588 24.90717831
589 25.12095485
590 23.31423033
591 23.31423033
592 22.74073394
593 22.74073394
594 22.74809355
595 22.74809355
596 22.74809355
597 22.95951342
598 23.29949906
599 23.29949906
600 23.29949906
601 23.29949906
602 23.29949906
603 23.13430647
604 23.13430647
605 23.13430647
606 23.13430647
607 23.13430647
608 21.81683885
609 22.21596529
610 22.13346683
611 22.13346683
612 22.72358569
613 22.75687052
614 22.65205051
615 22.65205051
616 22.1009872
617 22.1009872
618 22.1009872
619 22.1009872
620 22.1009872
621 22.1009872
622 22.65759344
623 22.5928113
624 22.5928113
625 22.48021347
626 22.26002525
627 22.26002525
628 22.80550341
629 22.80550341
630 22.80550341
631 23.68703266
632 23.4993991
633 23.4993991
634 23.4993991
635 23.51668637
636 23.51668637
637 23.70654486
638 23.70654486
639 26.64424901
640 25.85318591
641 25.39109113
642 25.39109113
643 25.79414972
644 25.71330929
645 25.63894362
646 25.57781072
647 25.57781072
648 26.23382418
649 26.36182164
650 26.75637261
651 27.149017
652 26.86074004
653 28.1471991
654 28.647719
655 28.647719
656 29.8636422
657 29.8636422
658 29.8636422
659 28.97348138
660 29.07777182
661 29.07777182
662 29.07777182
663 29.12442162
664 29.12442162
665 29.49935886
666 29.49935886
667 29.49935886
668 29.49935886
669 29.49935886
670 29.49935886
671 29.37370444
672 30.40696757
673 30.40696757
674 30.40696757
675 30.11537498
676 30.11537498
677 30.11537498
678 30.11537498
679 29.99091999
680 29.99091999
681 29.47273129
682 29.47273129
683 29.47273129
684 29.54020113
685 29.54020113
686 29.54020113
687 30.05502894
688 30.05502894
689 30.05502894
690 30.05502894
691 29.99138145
692 30.12209145
693 30.12209145
694 29.67522424
695 29.67522424
696 29.18558413
697 29.49227932
698 30.74635693
699 29.92045747
700 29.75843227
701 29.830103
702 26.88383145
703 26.88383145
704 27.3780767
705 26.91966416
706 26.39125118
707 26.39125118
708 25.73449295
709 26.08156433
710 26.08156433
711 25.2811611
712 25.2811611
713 25.2811611
714 26.28433607
715 26.28433607
716 26.15481051
717 26.15481051
718 26.15481051
719 26.15481051
720 26.10998258
721 26.10998258
722 25.66940965
723 25.66940965
724 25.66940965
725 25.59955236
726 25.59955236
727 25.59955236
728 25.59955236
729 25.59955236
730 25.36741376
731 26.24232849
732 26.0861833
733 26.0861833
734 28.25982873
735 28.25982873
736 28.25982873
737 28.03989113
738 28.03989113
739 28.03989113
740 29.67862983
741 29.67862983
742 29.67862983
743 29.67862983
744 29.54614614
745 30.56505762
746 30.56505762
747 30.56505762
748 28.7240184
749 29.35731318
750 29.35731318
751 29.35731318
752 29.35731318
753 29.27115165
754 28.74349041
755 28.27000427
756 28.18912225
757 28.18912225
758 28.18912225
759 28.92035071
760 28.92035071
761 28.92035071
762 28.41994299
763 27.0804488
764 27.24376503
765 27.24376503
766 27.98331644
767 27.98331644
768 27.98331644
769 26.44490339
770 26.44490339
771 26.77554676
772 27.0494648
773 26.80736202
774 26.80736202
775 26.80736202
776 26.42495013
777 26.34853296
778 26.24731768
779 25.12898514
780 25.60293875
781 25.90065052
782 25.90065052
783 25.88315298
784 25.90929497
785 25.90929497
786 25.90929497
787 25.90929497
788 25.90929497
789 25.90929497
790 25.90929497
791 25.90929497
792 25.90929497
793 25.90929497
794 25.90929497
795 25.63561039
796 24.48648103
797 24.43981047
798 24.43981047
799 24.43981047
800 27.26111779
801 27.17655288
802 27.17655288
803 27.17655288
804 27.17655288
805 26.99218862
806 26.99218862
807 26.94906187
808 26.71392142
809 26.24525864
810 26.24525864
811 26.24525864
812 26.24525864
813 26.24525864
814 26.24525864
815 26.27244713
816 26.27244713
817 26.4662844
818 26.13928175
819 26.18324933
820 25.7570882
821 25.7570882
822 25.98289581
823 25.98289581
824 25.98289581
825 25.01517773
826 25.75280124
827 25.88539412
828 26.31612536
829 26.2694922
830 27.20331463
831 27.20331463
832 28.15642987
833 28.15642987
834 28.15642987
835 28.97993198
836 28.78480537
837 28.78480537
838 28.78480537
839 28.48481324
840 28.48481324
841 28.81350772
842 28.81350772
843 28.67769637
844 28.67769637
845 28.67769637
846 28.67769637
847 28.67769637
848 26.78541848
849 26.80802044
850 26.81438317
851 26.81438317
852 26.7736575
853 26.7736575
854 26.7736575
855 26.7736575
856 26.7736575
857 26.7736575
858 26.7736575
859 26.76395793
860 26.72580675
861 26.72580675
862 26.9277194
863 26.91507526
864 26.91507526
865 26.91507526
866 26.91507526
867 26.91507526
868 27.32887275
869 27.11109053
870 27.11109053
871 27.38387428
872 27.21184027
873 27.21184027
874 28.50394784
875 28.2054045
876 28.2054045
877 28.2054045
878 28.28084954
879 29.56549841
880 29.56549841
881 29.56549841
882 32.00372387
883 32.00372387
884 31.71177105
885 31.87203096
886 31.87203096
887 31.72361319
888 31.72361319
889 32.74757926
890 31.8739718
891 31.8739718
892 31.8781307
893 31.8781307
894 30.86013184
895 30.32524653
896 29.97866105
897 29.61892797
898 30.88859059
899 30.88859059
900 30.88859059
901 31.37564071
902 31.62229437
903 31.62229437
904 31.62229437
905 31.62229437
906 31.62229437
907 31.62229437
908 31.66591585
909 31.66591585
910 31.87449777
911 32.25552012
912 32.25552012
913 32.25552012
914 32.25552012
915 32.17288533
916 32.05111329
917 32.05111329
918 32.05111329
919 30.50421716
920 30.50421716
921 30.50421716
922 30.50421716
923 31.66396781
924 31.7051664
925 31.7051664
926 31.65067554
927 31.81547379
928 31.81547379
929 29.57348052
930 29.57348052
931 30.28042448
932 30.28042448
933 29.89284458
934 29.7838087
935 29.7838087
936 29.65048222
937 29.65048222
938 29.65048222
939 29.65048222
940 29.65048222
941 29.72243462
942 29.15779962
943 28.62823068
944 28.37186749
945 28.37186749
946 29.63511231
947 29.47070103
948 29.47070103
949 29.47070103
950 28.81198834
951 28.81198834
952 28.81198834
953 28.81198834
954 28.81198834
955 28.81198834
956 28.81198834
957 29.25648967
958 29.67582512
959 29.67582512
960 28.77998074
961 28.0476129
962 28.0476129
963 28.24888928
964 28.24888928
965 27.54764717
966 27.74390819
967 28.63528931
968 29.57113361
969 29.24321837
970 29.8726535
971 29.8726535
972 29.8726535
973 29.8726535
974 29.8726535
975 29.8726535
976 29.8726535
977 28.94455671
978 28.94455671
979 28.94455671
980 26.77558429
981 26.77558429
982 26.77558429
983 26.77558429
984 26.77558429
985 26.77558429
986 26.77558429
987 26.90160962
988 27.72726371
989 28.29716472
990 28.29716472
991 29.55925261
992 30.35441422
993 30.85857379
994 30.85857379
995 31.97956687
996 32.03926407
997 32.03926407
998 32.59523335
999 32.45378909
1000 32.23842873
1001 32.23842873
1002 32.23842873
1003 32.13465914
1004 32.13465914
1005 32.13465914
1006 32.12600292
1007 32.07301851
1008 32.07301851
1009 32.07301851
1010 32.07301851
1011 32.06502571
1012 32.13395511
1013 32.13395511
1014 32.56790635
1015 32.0347936
1016 32.0347936
1017 32.05621122
1018 32.05621122
1019 32.05621122
1020 32.05621122
1021 32.08950674
1022 31.5512845
1023 30.83207754
1024 30.56828371
1025 30.56828371
1026 30.42246303
1027 30.42246303
1028 30.42246303
1029 30.42246303
1030 31.21544144
1031 31.21544144
1032 31.21544144
1033 31.0638561
1034 30.72821871
1035 30.72821871
1036 29.95047848
1037 29.41686756
1038 28.85729186
1039 28.85729186
1040 29.08410758
1041 27.78914267
1042 27.826439
1043 27.826439
1044 27.826439
1045 30.16506925
1046 30.16506925
1047 28.39694593
1048 28.39694593
1049 28.39694593
1050 28.39694593
1051 29.25563377
1052 29.86322594
1053 30.16428466
1054 30.16428466
1055 29.65724703
1056 29.65724703
1057 29.65724703
1058 29.8081206
1059 29.25613791
1060 29.25613791
1061 27.74138112
1062 27.39158587
1063 26.75441369
1064 26.18479902
1065 25.60296528
1066 25.20859233
1067 25.20859233
1068 25.20859233
1069 24.48460591
1070 24.48460591
1071 24.48460591
1072 24.39562971
1073 25.47319014
1074 26.42069249
1075 26.42069249
1076 26.42069249
1077 26.42069249
1078 27.51585932
1079 27.51585932
1080 27.51585932
1081 27.32790244
1082 27.32790244
1083 27.32790244
1084 27.32790244
1085 27.24868937
1086 27.24868937
1087 26.56912217
1088 26.56912217
1089 26.52256979
1090 27.24924557
1091 27.24924557
1092 27.24924557
1093 26.98132308
1094 27.1731473
1095 27.1731473
1096 27.1731473
1097 27.19820859
1098 27.19820859
1099 28.22277625
1100 28.22277625
1101 27.84091083
1102 27.84091083
1103 27.86432705
1104 27.86432705
1105 27.42416412
1106 27.66985907
1107 27.66985907
1108 28.9413719
1109 28.9413719
1110 28.73464034
1111 32.17416617
1112 32.17416617
1113 32.35161114
1114 32.62772593
1115 32.62772593
1116 32.75278505
1117 32.75278505
1118 32.75278505
1119 32.75278505
1120 32.87424936
1121 32.87424936
1122 32.87424936
1123 32.31794017
1124 32.31794017
1125 31.57427323
1126 31.82272028
1127 31.82272028
1128 31.87131298
1129 31.2237385
1130 31.42711094
1131 31.25906939
1132 31.25906939
1133 29.7503874
1134 29.7503874
1135 29.7503874
1136 30.99323016
1137 30.99323016
1138 31.19832923
1139 31.19832923
1140 31.19832923
1141 31.21956099
1142 31.2149186
1143 30.28509182
1144 30.71140797
1145 31.30900742
1146 31.30900742
1147 30.95210266
1148 30.95210266
1149 30.95210266
1150 30.95210266
1151 30.95210266
1152 30.95210266
1153 30.95210266
1154 31.17206364
1155 30.19101771
1156 29.12484751
1157 29.12484751
1158 25.4375025
1159 25.4375025
1160 25.4375025
1161 25.4375025
1162 25.4375025
1163 25.52848373
1164 25.52848373
1165 25.52848373
1166 25.52848373
1167 24.04689058
1168 24.04689058
1169 24.04689058
1170 24.02773825
1171 24.02773825
1172 24.08197971
1173 21.70880703
1174 21.70880703
1175 21.70880703
1176 21.46756163
1177 21.46756163
1178 21.46756163
1179 21.63159406
1180 21.63159406
1181 21.75948421
1182 21.75948421
1183 22.05276419
1184 22.05276419
1185 22.05276419
1186 21.77287965
1187 21.77287965
1188 21.72842567
1189 22.78155853
1190 23.48684043
1191 22.58198292
1192 23.04736215
1193 23.04736215
1194 24.12907598
1195 24.24354278
1196 24.24354278
1197 24.24354278
1198 24.24354278
1199 24.24354278
1200 24.24027626
1201 24.77830945
1202 22.46336401
1203 22.46336401
1204 22.23946511
1205 22.14520202
1206 22.14520202
1207 22.09772172
1208 23.65730964
1209 23.60244952
1210 23.60244952
1211 23.60244952
1212 22.88915009
1213 22.88915009
1214 22.88915009
1215 22.88915009
1216 22.9138889
1217 23.08132
1218 22.69981275
1219 22.69981275
1220 23.07454112
1221 23.07454112
1222 23.07454112
1223 23.07454112
1224 23.07454112
1225 23.07454112
1226 23.69278779
1227 23.69278779
1228 23.69278779
1229 23.69278779
1230 22.73171023
1231 22.73171023
1232 22.3312656
1233 22.3312656
1234 22.3312656
1235 22.3312656
1236 22.3312656
1237 22.3312656
1238 22.48862441
1239 21.00047182
1240 20.91660237
1241 20.91660237
1242 22.04279749
1243 22.04279749
1244 22.04279749
1245 22.04279749
1246 21.89165163
1247 21.67066275
1248 21.33021613
1249 20.58310138
1250 20.45314432
1251 20.28416882
1252 20.28416882
1253 20.24793561
1254 20.24793561
1255 20.24793561
1256 20.24793561
1257 21.01269391
1258 20.90739421
1259 20.90739421
1260 22.2312313
1261 22.48177317
1262 22.48177317
1263 19.74224609
1264 19.86922549
1265 19.84684139
1266 19.84684139
1267 19.46420172
1268 19.54241029
1269 20.16669325
1270 20.16669325
1271 20.16669325
1272 20.1408219
1273 20.1408219
1274 20.1408219
1275 20.1408219
1276 20.64407299
1277 20.64407299
1278 20.64407299
1279 20.9443715
1280 20.9443715
1281 21.60044575
1282 21.71631897
1283 21.71631897
1284 21.71631897
1285 21.76477965
1286 21.76477965
1287 21.8042372
1288 21.6766265
1289 21.80424898
1290 21.80424898
1291 21.80424898
1292 21.67788719
1293 21.95529932
1294 23.54267561
1295 23.54267561
1296 23.53058361
1297 23.53058361
1298 23.36481932
1299 23.36481932
1300 23.36481932
1301 23.49239218
1302 23.23798162
1303 23.23798162
1304 23.23798162
1305 22.5418799
1306 22.5418799
1307 22.90271399
1308 22.90271399
1309 22.72057328
1310 22.72057328
1311 22.72057328
1312 22.83372355
1313 22.83372355
1314 24.1979509
1315 24.53745196
1316 24.92058877
1317 25.11294341
1318 25.11294341
1319 24.82525138
1320 24.82525138
1321 24.82525138
1322 24.82525138
1323 24.82525138
1324 24.82525138
1325 24.82525138
1326 24.82525138
1327 25.52836204
1328 25.52836204
1329 25.52836204
1330 25.61171686
1331 27.46958636
1332 27.46958636
1333 27.27833029
1334 26.95026564
1335 26.95026564
1336 26.95026564
1337 26.95026564
1338 27.42693347
1339 27.30437558
1340 24.47450208
1341 24.45023076
1342 24.45023076
1343 24.45023076
1344 23.49147749
1345 22.02272904
1346 22.02272904
1347 22.02272904
1348 22.02272904
1349 22.02272904
1350 21.98435527
1351 22.22974075
1352 22.07575115
1353 22.07575115
1354 22.0307248
1355 22.0307248
1356 22.02888188
1357 22.02888188
1358 22.97838036
1359 23.79165386
1360 24.70474941
1361 23.36227009
1362 23.36227009
1363 23.2433021
1364 23.2433021
1365 23.85305896
1366 23.85305896
1367 23.85305896
1368 23.74876172
1369 23.83849128
1370 24.45336391
1371 24.74458486
1372 24.74458486
1373 24.74458486
1374 24.74458486
1375 25.9082745
1376 26.76489627
1377 27.48416388
1378 27.48416388
1379 27.44253012
1380 29.76105086
1381 29.76105086
1382 29.76105086
1383 29.76105086
1384 29.76105086
1385 29.76105086
1386 29.55173114
1387 29.55173114
1388 29.55173114
1389 29.55173114
1390 29.55173114
1391 29.54599804
1392 29.23693364
1393 29.29249368
1394 29.29249368
1395 29.29249368
1396 30.5506283
1397 30.74219629
1398 30.74219629
1399 29.2679357
1400 29.84180719
1401 29.88701299
1402 30.3175678
1403 33.35865173
1404 32.80525118
1405 33.8112109
1406 33.8112109
1407 33.8112109
1408 33.8112109
1409 33.74111266
1410 34.01345355
1411 34.01345355
1412 34.27651342
1413 34.54254284
1414 34.69805337
1415 34.69805337
1416 34.69805337
1417 34.46619719
1418 34.46619719
1419 34.46619719
1420 34.46619719
1421 34.46619719
1422 34.01741233
1423 34.01741233
1424 34.01741233
1425 32.95601819
1426 32.95601819
1427 32.95601819
1428 32.95601819
1429 33.74501887
1430 33.74501887
1431 33.08797097
1432 33.08797097
1433 33.08797097
1434 33.08797097
1435 33.08797097
1436 33.08797097
1437 33.08797097
1438 33.02334323
1439 33.02334323
1440 33.02334323
1441 32.821233
1442 32.821233
1443 31.09991844
1444 30.77559275
1445 30.92100966
1446 30.92100966
1447 30.15341893
1448 30.97672586
1449 31.21246536
1450 31.21246536
1451 31.21246536
1452 31.02600264
1453 30.69783836
1454 29.73811586
1455 29.73811586
1456 29.91230865
1457 29.91230865
1458 28.91077374
1459 28.91077374
1460 28.91077374
1461 28.91077374
1462 29.63940346
1463 29.63940346
1464 29.63940346
1465 29.49901932
1466 30.09766524
1467 30.15216703
1468 31.02209338
1469 30.17550997
1470 30.0207591
1471 29.93936838
1472 29.93936838
1473 30.25123062
1474 30.18086113
1475 30.18086113
1476 30.18086113
1477 29.96063865
1478 30.18439432
1479 29.87276467
1480 29.87276467
1481 28.06451119
1482 28.0777183
1483 28.0777183
1484 27.82739444
1485 27.82739444
1486 27.7614939
1487 27.7614939
1488 27.32214714
1489 27.2157453
1490 26.9263648
1491 26.9263648
1492 26.9263648
1493 26.9263648
1494 26.9263648
1495 26.13561056
1496 26.13561056
1497 26.13561056
1498 26.30638904
1499 24.381258
1500 24.381258
1501 24.381258
1502 24.14857551
1503 24.24924435
1504 24.20091044
1505 24.55999105
1506 30.12952665
1507 30.12952665
1508 30.12952665
1509 30.12952665
1510 30.12952665
1511 30.12952665
1512 30.12952665
1513 29.46996714
1514 29.44825851
1515 32.65361889
1516 32.62355775
1517 32.62355775
1518 32.62355775
1519 32.40456939
1520 32.77050066
1521 32.77050066
1522 32.77050066
1523 32.77050066
1524 32.9110133
1525 32.9110133
1526 32.9110133
1527 32.9110133
1528 33.04414932
1529 32.42752276
1530 32.13056271
1531 33.3745788
1532 33.3745788
1533 33.31963906
1534 33.31963906
1535 33.31963906
1536 33.31963906
1537 34.07255372
1538 34.19981075
1539 33.91384648
1540 33.91384648
1541 34.06220734
1542 34.06220734
1543 33.78419133
1544 33.78419133
1545 33.79060127
1546 33.3240488
1547 33.29902184
1548 33.29902184
1549 33.46232148
1550 33.18850715
1551 33.18850715
1552 33.18850715
1553 33.18850715
1554 33.18850715
1555 34.5581856
1556 33.35719586
1557 33.35719586
1558 33.35719586
1559 33.41814733
1560 33.53981552
1561 33.53981552
1562 33.53981552
1563 34.37629461
1564 34.61346883
1565 34.52801389
1566 35.36184531
1567 35.36184531
1568 35.36184531
1569 35.29852053
1570 35.29852053
1571 35.29852053
1572 35.29852053
1573 35.26257101
1574 35.26257101
1575 35.26257101
1576 34.9307933
1577 34.9307933
1578 35.03011412
1579 30.50304472
1580 30.50304472
1581 32.04488427
1582 32.08619229
1583 31.35285115
1584 31.35285115
1585 31.35285115
1586 31.05386908
1587 30.12581598
1588 30.12581598
1589 29.92374049
1590 27.58943015
1591 27.8404333
1592 28.39641577
1593 28.39641577
1594 28.68616558
1595 28.68616558
1596 29.66315295
1597 29.6322754
1598 29.6322754
1599 29.6322754
1600 29.6322754
1601 29.6322754
1602 29.6322754
1603 29.67597054
1604 29.13378983
1605 29.4024172
1606 29.4024172
1607 29.12554073
1608 29.02219855
1609 29.02219855
1610 29.02219855
1611 29.21566522
1612 29.21566522
1613 29.16367549
1614 29.07155475
1615 29.96603707
1616 28.90476288
1617 28.90476288
1618 28.90476288
1619 28.90476288
1620 29.49372729
1621 30.32628456
1622 30.68059949
1623 30.68059949
1624 30.68059949
1625 30.68059949
1626 30.68059949
1627 29.61622944
1628 29.61622944
1629 29.61622944
1630 29.61622944
1631 30.34695705
1632 30.34695705
1633 30.34695705
1634 30.34695705
1635 29.97934754
1636 29.78303902
1637 29.78303902
1638 29.68305435
1639 29.3869407
1640 29.1958906
1641 29.1958906
1642 29.1958906
1643 29.48459666
1644 29.48459666
1645 29.48459666
1646 29.48459666
1647 29.48459666
1648 29.29853
1649 29.14544745
1650 29.99483203
1651 30.13137505
1652 30.13137505
1653 30.13137505
1654 30.13137505
1655 29.75456002
1656 29.75456002
1657 29.75456002
1658 29.89082674
1659 30.80022954
1660 30.28818217
1661 30.5858434
1662 29.65600675
1663 29.65600675
1664 29.65600675
1665 31.93653562
1666 31.81361223
1667 31.81361223
1668 31.33076071
1669 31.29545585
1670 32.02662539
1671 32.02662539
1672 32.52836077
1673 32.60074325
1674 32.60074325
1675 32.60074325
1676 32.60074325
1677 32.60074325
1678 32.60074325
1679 32.60074325
1680 32.32605303
1681 32.32605303
1682 32.32605303
1683 32.32605303
1684 32.21018911
1685 32.21018911
1686 32.21018911
1687 32.21018911
1688 32.21018911
1689 32.21018911
1690 32.14425929
1691 32.38167262
1692 32.38167262
1693 32.38167262
1694 32.38167262
1695 32.38167262
1696 32.38167262
1697 32.27782521
1698 32.27782521
1699 31.79387487
1700 32.46034594
1701 32.16579343
1702 32.16579343
1703 32.16579343
1704 32.16579343
1705 30.96788521
1706 30.84110718
1707 31.27083528
1708 30.6172742
1709 30.6172742
1710 30.6172742
1711 31.00048428
1712 31.5310915
1713 31.5310915
1714 31.22996642
1715 31.41277979
1716 31.41277979
1717 31.791793
1718 29.70601258
1719 29.70601258
1720 29.70601258
1721 30.33101412
1722 30.14114624
1723 30.14114624
1724 30.14114624
1725 30.14114624
1726 30.14114624
1727 31.41885099
1728 31.41885099
1729 31.26548379
1730 30.41562952
1731 30.41562952
1732 30.41562952
1733 30.18503027
1734 29.69599926
1735 29.69599926
1736 29.69599926
1737 29.69599926
1738 29.69599926
1739 29.69599926
1740 28.6371967
1741 28.97864424
1742 28.97864424
1743 29.63247869
1744 29.63247869
1745 29.14841442
1746 29.14841442
1747 29.14841442
1748 29.14841442
1749 29.14841442
1750 29.14841442
1751 29.14841442
1752 29.14841442
1753 28.97768126
1754 28.97768126
1755 28.32097062
1756 28.32097062
1757 28.32097062
1758 28.66197546
1759 28.66197546
1760 28.66197546
1761 28.1798552
1762 28.39103829
1763 28.39103829
1764 28.49688001
1765 28.49688001
1766 28.49688001
1767 27.98830883
1768 28.67530442
1769 28.66183088
1770 29.14737567
1771 29.11443245
1772 29.40196871
1773 29.46432488
1774 29.31367811
1775 29.31367811
1776 29.31367811
1777 29.31367811
1778 28.93107978
1779 28.93107978
1780 28.24990956
1781 28.58167756
1782 28.58167756
1783 30.22219637
1784 30.22219637
1785 31.14794299
1786 31.83428739
1787 31.83428739
1788 31.83428739
1789 31.06164186
1790 30.75612997
1791 29.83934025
1792 29.83934025
1793 29.83934025
1794 29.83934025
1795 29.83934025
1796 29.047194
1797 28.01478682
1798 28.01478682
1799 28.03685673
1800 28.03685673
1801 28.03685673
1802 27.76037719
1803 27.76037719
1804 27.76037719
1805 27.46421471
1806 28.40791393
1807 28.40791393
1808 28.40791393
1809 28.40791393
1810 28.23817241
1811 28.23817241
1812 26.93852127
1813 27.1043716
1814 27.1043716
1815 26.61923226
1816 26.72586164
1817 26.72586164
1818 26.72586164
1819 27.90984344
1820 27.90984344
1821 26.74826836
1822 26.74826836
1823 26.74826836
1824 26.51581267
1825 26.84580404
1826 26.84580404
1827 26.84580404
1828 26.84580404
1829 26.84580404
1830 26.71540021
1831 26.48813365
1832 26.48813365
1833 26.61722054
1834 26.56932642
1835 26.19128291
1836 25.99226993
1837 25.99226993
1838 25.88396671
1839 25.88396671
1840 25.97694627
1841 26.06647485
1842 24.53731687
1843 24.53731687
1844 24.53731687
1845 24.53731687
1846 24.53731687
1847 26.17839077
1848 26.17839077
1849 26.17839077
1850 25.20259058
1851 25.20259058
1852 25.05069585
1853 25.05069585
1854 25.05069585
1855 25.06225472
1856 26.37953795
1857 26.37953795
1858 26.09571401
1859 26.09571401
1860 26.09571401
1861 26.09571401
1862 26.52313145
1863 26.65429818
1864 26.65429818
1865 26.02005147
1866 26.02005147
1867 26.02005147
1868 26.02005147
1869 26.02005147
1870 25.8709308
1871 24.95065772
1872 24.95065772
1873 24.95065772
1874 24.95065772
1875 24.95065772
1876 24.78279987
1877 24.78279987
1878 24.78279987
1879 24.73370006
1880 24.48180747
1881 24.48180747
1882 24.33173746
1883 22.31105868
1884 22.31105868
1885 22.13536392
1886 22.09986506
1887 22.09986506
1888 22.09986506
1889 21.49204644
1890 21.49204644
1891 21.49204644
1892 21.88197921
1893 22.2625956
1894 21.80443235
1895 22.35115248
1896 22.296161
1897 22.296161
1898 22.296161
1899 22.19634621
1900 21.31017931
1901 21.31017931
1902 21.20982952
1903 21.20982952
1904 20.34281679
1905 20.34281679
1906 20.34281679
1907 20.50792283
1908 20.05197226
1909 20.05197226
1910 20.05197226
1911 19.48354058
1912 19.48354058
1913 19.48354058
1914 19.48354058
1915 19.35214777
1916 19.35214777
1917 19.35214777
1918 19.35871759
1919 19.73831818
1920 19.73831818
1921 19.73831818
1922 19.73831818
1923 19.73831818
1924 19.76858478
1925 20.63104888
1926 20.84564394
1927 20.84564394
1928 22.00193562
1929 22.54284449
1930 22.72907447
1931 22.72907447
1932 22.72907447
1933 22.72907447
1934 22.72907447
1935 22.12656984
1936 22.12656984
1937 21.88851197
1938 22.97495092
1939 22.97495092
1940 22.97495092
1941 22.96113134
1942 22.92252153
1943 22.92252153
1944 22.92252153
1945 22.46496064
1946 22.46496064
1947 22.67521268
1948 22.67521268
1949 22.67521268
1950 22.67521268
1951 22.67521268
1952 21.91233672
1953 23.42478512
1954 23.42478512
1955 23.46529258
1956 23.46529258
1957 23.73556241
1958 24.12928201
1959 24.12928201
1960 24.10574787
1961 24.10574787
1962 24.10574787
1963 24.33630722
1964 24.33630722
1965 23.84185108
1966 24.40135057
1967 24.40135057
1968 24.51702494
1969 24.55033382
1970 25.14681277
1971 25.14681277
1972 24.52128014
1973 24.49799277
1974 24.49799277
1975 23.10417911
1976 22.67652897
1977 22.67652897
1978 22.67652897
1979 22.67652897
1980 22.67652897
1981 22.67652897
1982 22.67652897
1983 22.73731999
1984 22.73731999
1985 23.23936303
1986 23.68713481
1987 23.68713481
1988 23.68713481
1989 23.9981788
1990 23.9981788
1991 23.9981788
1992 24.58367011
1993 24.91881228
1994 24.89605847
1995 24.89605847
1996 25.08182782
1997 25.08182782
1998 25.08182782
1999 25.08182782
2000 25.08182782
2001 25.08182782
2002 25.08182782
2003 24.61942121
2004 24.68621959
2005 24.68621959
2006 24.80632005
2007 24.90068605
2008 24.90068605
2009 25.28505448
2010 25.28505448
2011 25.28505448
2012 25.28505448
2013 25.11545123
2014 24.67339327
2015 24.13460033
2016 24.13460033
2017 23.72102342
2018 23.70303227
2019 23.70303227
2020 23.92419092
2021 23.92419092
2022 23.55549633
2023 23.36368335
2024 23.36368335
2025 23.31379536
2026 23.31379536
2027 23.31379536
2028 23.50157275
2029 23.50157275
2030 23.49888855
2031 24.43319647
2032 24.22774223
2033 24.22774223
2034 23.10898504
2035 23.21683296
2036 23.21683296
2037 23.21683296
2038 24.39217858
2039 24.39217858
2040 23.93417203
2041 23.93417203
2042 23.93417203
2043 23.93417203
2044 23.86213513
2045 24.47780484
2046 24.47780484
2047 24.47780484
2048 24.47780484
2049 24.47780484
2050 24.84411024
2051 24.84411024
2052 24.84411024
2053 24.84411024
2054 25.0885108
2055 25.0885108
2056 25.0885108
2057 25.06097671
2058 24.29202279
2059 24.29202279
2060 24.80664705
2061 24.29598489
2062 24.29598489
2063 24.26870071
2064 24.26870071
2065 24.12438849
2066 24.12438849
2067 24.54961923
2068 24.54961923
2069 24.54961923
2070 24.50842593
2071 24.50337147
2072 24.50337147
2073 24.79756238
2074 25.35725711
2075 25.35725711
2076 25.65018226
2077 26.39881897
2078 26.39881897
2079 26.39881897
2080 27.16650083
2081 27.16650083
2082 26.38163858
2083 26.27411763
2084 26.39335226
2085 26.39335226
2086 26.39335226
2087 26.58001089
2088 26.58001089
2089 26.58001089
2090 26.58001089
2091 27.25324517
2092 27.25324517
2093 27.25175676
2094 30.31403715
2095 29.92364319
2096 29.96327353
2097 29.77759134
2098 29.77759134
2099 29.77759134
2100 30.40440908
2101 30.23375458
2102 30.09704004
2103 30.09704004
2104 30.09704004
2105 29.90501685
2106 30.06384374
2107 30.06384374
2108 30.06384374
2109 27.73896302
2110 27.73896302
2111 27.73896302
2112 27.19751403
2113 27.19751403
2114 27.19751403
2115 27.19751403
2116 27.19751403
2117 27.19751403
2118 27.19751403
2119 27.19751403
2120 27.19751403
2121 27.51040867
2122 27.51040867
2123 27.85993985
2124 27.85993985
2125 27.85993985
2126 27.85993985
2127 27.85993985
2128 27.85993985
2129 28.07120739
2130 28.07120739
2131 27.75605903
2132 27.75605903
2133 27.23260821
2134 29.86581439
2135 29.86581439
2136 30.95956263
2137 31.02637134
2138 31.02637134
2139 31.0981029
2140 29.94489047
2141 30.73391354
2142 30.73391354
2143 29.45005479
2144 29.42403583
2145 29.42403583
2146 29.41810237
2147 28.61187842
2148 29.15873276
2149 29.25018849
2150 29.25018849
2151 29.21363549
2152 29.42891476
2153 29.10509053
2154 28.71956015
2155 28.71956015
2156 29.38722208
2157 30.00052475
2158 30.00052475
2159 30.00052475
2160 31.50066192
2161 31.50066192
2162 31.50066192
2163 31.50066192
2164 31.50066192
2165 31.50066192
2166 30.84252199
2167 30.84252199
2168 30.84252199
2169 30.84252199
2170 31.63659758
2171 32.58080896
2172 32.58080896
2173 30.03147441
2174 30.03147441
2175 30.03147441
2176 30.03147441
2177 30.03147441
2178 30.03147441
2179 29.9535646
2180 29.38717798
2181 28.65870204
2182 28.65870204
2183 28.70912474
2184 30.38686664
2185 30.38686664
2186 30.38686664
2187 30.38686664
2188 28.29746374
2189 28.29746374
2190 28.29746374
2191 28.29746374
2192 28.29746374
2193 28.29746374
2194 29.38281495
2195 28.9094691
2196 28.57741394
2197 30.10046383
2198 30.22404338
2199 30.22404338
2200 30.22404338
2201 30.22404338
2202 30.3259719
2203 30.21076329
2204 29.68475695
2205 29.68475695
2206 29.703918
2207 28.21791148
2208 28.33816516
2209 28.33816516
2210 28.76986415
2211 28.76986415
2212 28.69721805
2213 28.47313349
2214 28.47313349
2215 28.47313349
2216 28.47313349
2217 28.11400755
2218 28.35825911
2219 28.62695946
2220 28.62695946
2221 28.62695946
2222 28.62695946
2223 28.62695946
2224 28.22943565
2225 28.49162772
2226 28.49162772
2227 28.87927447
2228 28.87927447
2229 28.87927447
2230 28.87927447
2231 31.64692497
2232 31.64692497
2233 32.51815388
2234 31.03212309
2235 31.35014572
2236 31.38360318
2237 31.38360318
2238 31.38360318
2239 31.38360318
2240 30.99468421
2241 30.99468421
2242 31.12605216
2243 31.12605216
2244 31.12605216
2245 31.12605216
2246 29.95464543
2247 29.83902505
2248 29.83902505
2249 27.98676453
2250 27.98676453
2251 29.82624701
2252 29.82624701
2253 29.82624701
2254 29.44297543
2255 28.89645343
2256 28.89645343
2257 28.89645343
2258 28.89645343
2259 28.30781956
2260 28.30781956
2261 28.30781956
2262 28.30781956
2263 28.33888575
2264 28.33888575
2265 27.9283607
2266 27.77396292
2267 27.77396292
2268 27.77396292
2269 27.62468213
2270 27.20581116
2271 27.04908495
2272 26.98697158
2273 27.06648303
2274 26.75610262
2275 26.79911872
2276 27.60305614
2277 27.60305614
2278 27.35685974
2279 27.35685974
2280 26.64018129
2281 26.64018129
2282 26.64018129
2283 25.81856836
2284 25.81856836
2285 25.81856836
2286 25.67812947
2287 25.67812947
2288 25.67812947
2289 26.01896309
2290 26.01896309
2291 26.11728581
2292 26.1876316
2293 26.1876316
2294 26.10317166
2295 26.08170076
2296 26.24555614
2297 26.24555614
2298 26.07788983
2299 26.07788983
2300 26.19275092
2301 25.358696
2302 25.358696
2303 25.358696
2304 25.358696
2305 25.69286118
2306 25.95413757
2307 26.02184843
2308 26.1232641
2309 26.1232641
2310 26.1232641
2311 26.1232641
2312 25.50742755
2313 25.50742755
2314 26.41182645
2315 26.41182645
2316 26.41182645
2317 26.82527243
2318 26.55655998
2319 26.55655998
2320 27.27951941
2321 27.27951941
2322 27.27951941
2323 27.27951941
2324 27.77751954
2325 28.31562907
2326 28.40330334
2327 28.66036321
2328 28.75955355
2329 28.75955355
2330 29.41568042
2331 29.44959041
2332 29.44959041
2333 29.44959041
2334 29.14637303
2335 28.64466235
2336 28.64466235
2337 28.64466235
2338 28.34347303
2339 28.34347303
2340 28.34347303
2341 28.25538145
2342 27.56052306
2343 27.34432574
2344 27.34432574
2345 27.40596651
2346 26.20706803
2347 26.20706803
2348 26.20706803
2349 26.20706803
2350 26.20706803
2351 26.20706803
2352 26.20706803
2353 26.20706803
2354 22.08468835
2355 22.82460674
2356 22.82460674
2357 22.08829912
2358 22.16537965
2359 21.40997491
2360 21.00278255
2361 21.00278255
2362 22.54850422
2363 22.89170291
2364 22.89170291
2365 22.89170291
2366 22.32884229
2367 22.32884229
2368 22.32884229
2369 22.26655164
2370 22.26655164
2371 22.30531467
2372 22.30531467
2373 21.89312838
2374 21.72745878
2375 21.31884604
2376 21.31884604
2377 21.31884604
2378 21.31884604
2379 21.31884604
2380 22.10921918
2381 22.10921918
2382 22.10921918
2383 22.10921918
2384 21.92926082
2385 21.92926082
2386 21.92926082
2387 21.92926082
2388 21.6225219
2389 21.6225219
2390 21.6225219
2391 21.6225219
2392 21.6225219
2393 23.6934992
2394 23.26510106
2395 23.24896814
2396 23.22802148
2397 23.16909296
2398 23.16909296
2399 22.84684391
2400 22.84684391
2401 22.76946909
2402 22.80065667
2403 22.80065667
2404 22.80065667
2405 23.46756185
2406 23.59999379
2407 23.28750442
2408 23.28750442
2409 23.28750442
2410 23.28750442
2411 23.72610244
2412 23.72610244
2413 23.72610244
2414 23.40249848
2415 24.09233402
2416 24.09233402
2417 24.09233402
2418 24.09233402
2419 24.21899161
2420 23.85418169
2421 23.64502391
2422 23.64502391
2423 23.38277838
2424 23.38277838
2425 23.38277838
2426 24.02885321
2427 24.02885321
2428 24.04780296
2429 24.04780296
2430 24.72315353
2431 24.72315353
2432 24.77410534
2433 24.76302343
2434 24.76302343
2435 24.36429877
2436 24.36429877
2437 24.36429877
2438 24.36429877
2439 28.74153415
2440 28.93144473
2441 28.93144473
2442 29.09574531
2443 28.97742056
2444 30.0803554
2445 31.91786013
2446 31.91786013
2447 30.880897
2448 31.94511946
2449 31.94511946
2450 31.94511946
2451 31.94511946
2452 31.94511946
2453 31.94511946
2454 31.94511946
2455 31.94511946
2456 31.73385074
2457 31.73385074
2458 31.73385074
2459 31.73385074
2460 31.73385074
2461 31.75294352
2462 32.73084622
2463 32.73084622
2464 32.56857153
2465 32.94841332
2466 32.62591013
2467 33.21074149
2468 33.21074149
2469 33.3260893
2470 35.02513361
2471 34.44761837
2472 34.44761837
2473 34.44761837
2474 34.10065297
2475 34.10065297
2476 34.10065297
2477 34.10065297
2478 34.34113696
2479 34.34113696
2480 34.34113696
2481 34.34113696
2482 34.8549409
2483 34.8549409
2484 34.82616811
2485 34.82616811
2486 35.11642423
2487 34.07682408
2488 33.57051987
2489 33.57051987
2490 33.57051987
2491 32.95215496
2492 33.70338127
2493 34.69762595
2494 34.69762595
2495 34.69762595
2496 34.69762595
2497 34.60402405
2498 34.60402405
2499 35.97149879
2500 35.97149879
2501 35.97149879
2502 35.76851443
2503 35.76851443
2504 34.60784327
2505 34.45997536
2506 37.3902046
2507 37.00121821
2508 37.14647632
2509 37.02067562
2510 37.02067562
2511 37.02067562
2512 36.9921518
2513 36.15834936
2514 36.15834936
2515 36.15834936
2516 36.16138469
2517 36.66286833
2518 36.70078427
2519 35.78836617
2520 35.88038883
2521 35.88038883
2522 36.00424752
2523 36.00424752
2524 34.81148556
2525 34.81148556
2526 34.28286127
2527 34.28286127
2528 34.10175105
2529 34.10175105
2530 34.18443619
2531 33.27540859
2532 33.56429347
2533 33.56429347
2534 33.56429347
2535 33.0194147
2536 31.06439222
2537 30.63974611
2538 30.63974611
2539 30.51251586
2540 30.51251586
2541 30.51251586
2542 29.69178987
2543 29.69178987
2544 29.69178987
2545 29.69178987
2546 29.69178987
2547 29.09707855
2548 29.09707855
2549 29.09707855
2550 29.06429766
2551 29.35093764
2552 29.35093764
2553 29.35093764
2554 29.35713471
2555 29.35713471
2556 30.57460826
2557 31.01743629
2558 31.01743629
2559 31.01743629
2560 31.01743629
2561 32.38452434
2562 32.38452434
2563 32.38452434
2564 32.38452434
2565 32.34522762
2566 32.34522762
2567 28.26910805
2568 28.06846368
2569 28.06846368
2570 28.06846368
2571 28.06846368
2572 28.06846368
2573 28.3507036
2574 28.3507036
2575 28.3507036
2576 28.8715884
2577 28.54022306
2578 28.54022306
2579 28.54022306
2580 26.84968577
2581 26.84968577
2582 26.84968577
2583 26.76914161
2584 27.51446893
2585 27.51446893
2586 25.04210484
2587 25.04210484
2588 25.04210484
2589 25.04210484
2590 25.04210484
2591 24.71537763
2592 24.85939806
2593 24.83439986
2594 24.83439986
2595 24.37816505
2596 24.37816505
2597 24.87156435
2598 24.87156435
2599 24.87156435
2600 24.87156435
2601 24.87156435
2602 25.34342905
2603 25.34342905
2604 25.34342905
2605 25.22538461
2606 24.80070692
2607 24.59081784
2608 24.59081784
2609 24.59081784
2610 24.59081784
2611 24.59081784
2612 24.64087372
2613 25.33717309
2614 25.33717309
2615 26.37478747
2616 26.37478747
2617 26.37478747
2618 25.43809282
2619 25.43809282
2620 25.53190936
2621 25.22572895
2622 24.71805941
2623 24.71805941
2624 24.78048298
2625 24.78048298
2626 24.78048298
2627 24.78048298
2628 24.41439332
2629 25.70773131
2630 25.70773131
2631 25.70773131
2632 26.3572014
2633 25.9783614
2634 25.9783614
2635 25.9783614
2636 25.9783614
2637 25.9783614
2638 26.32330226
2639 26.22205328
2640 26.22205328
2641 26.22205328
2642 26.22205328
2643 26.23613659
2644 26.23613659
2645 27.3847372
2646 28.45219133
2647 28.45219133
2648 28.45219133
2649 28.45219133
2650 28.71337356
2651 28.31160631
2652 28.31160631
2653 28.31160631
2654 27.61036679
2655 27.61036679
2656 27.61036679
2657 26.48309708
2658 26.48309708
2659 26.48309708
2660 26.48309708
2661 26.70140134
2662 26.76180439
2663 27.66237519
2664 27.66237519
2665 28.06774476
2666 28.06774476
2667 28.04900013
2668 27.2323908
2669 27.2323908
2670 27.76627642
2671 27.81834743
2672 27.81834743
2673 27.81834743
2674 27.81834743
2675 28.24068096
2676 28.24068096
2677 28.03135998
2678 28.03135998
2679 27.64523725
2680 28.61933541
2681 28.61933541
2682 28.61933541
2683 28.61933541
2684 28.5212165
2685 28.82204014
2686 28.82204014
2687 28.82204014
2688 28.82204014
2689 28.80457508
2690 28.80457508
2691 28.80457508
2692 27.96593398
2693 30.11767302
2694 31.04100623
2695 31.04100623
2696 30.7573617
2697 30.7573617
2698 30.7573617
2699 30.7573617
2700 30.74397035
2701 30.74397035
2702 28.73276665
2703 29.90440134
2704 29.90440134
2705 30.38168442
2706 29.4097452
2707 29.4097452
2708 29.4097452
2709 29.52966546
2710 29.44950279
2711 29.44950279
2712 29.4473369
2713 29.4473369
2714 29.79462907
2715 30.59944792
2716 30.59944792
2717 30.55777075
2718 30.55777075
2719 30.55777075
2720 31.17565973
2721 31.17565973
2722 31.23759331
2723 31.23759331
2724 31.23759331
2725 31.23759331
2726 31.33215879
2727 31.36813396
2728 31.27168447
2729 31.27168447
2730 30.71001838
2731 30.71001838
2732 31.33004445
2733 29.80362959
2734 29.80362959
2735 29.80362959
2736 29.80362959
2737 29.85245946
2738 30.29230629
2739 30.41097366
2740 31.04757411
2741 31.18377608
2742 31.18377608
2743 31.18377608
2744 31.18377608
2745 31.18377608
2746 29.8041872
2747 29.8041872
2748 29.8041872
2749 29.8041872
2750 29.8041872
2751 30.00813467
2752 30.00813467
2753 30.00813467
2754 29.87590638
2755 29.87590638
2756 29.86979253
2757 29.86979253
2758 30.10699522
2759 29.82393684
2760 29.85155239
2761 29.85155239
2762 29.34472413
2763 29.34472413
2764 28.78522568
2765 29.46826172
2766 30.49836943
2767 29.90575003
2768 30.58142607
2769 30.58142607
2770 29.26006125
2771 29.5247177
2772 29.5247177
2773 28.72734555
2774 28.72734555
2775 28.72734555
2776 28.72734555
2777 28.72734555
2778 28.97168298
2779 29.2245083
2780 29.55212569
2781 29.53253759
2782 29.53253759
2783 32.20483844
2784 32.20483844
2785 32.20483844
2786 32.20483844
2787 32.20483844
2788 32.20483844
2789 32.20483844
2790 32.20483844
2791 32.20483844
2792 30.11565747
2793 30.11565747
2794 30.11565747
2795 29.86560514
2796 27.40979983
2797 27.27180637
2798 27.76857702
2799 27.29792927
2800 26.87304427
2801 26.87304427
2802 26.87304427
2803 26.90633849
2804 26.26370613
2805 26.26370613
2806 26.26370613
2807 25.84488232
2808 25.66925824
2809 25.66925824
2810 26.10241419
2811 26.10241419
2812 26.10241419
2813 26.10241419
2814 26.10241419
2815 27.1984876
2816 27.177774
2817 27.05652904
2818 27.05652904
2819 27.19129885
2820 26.75315512
2821 26.75315512
2822 27.25083117
2823 27.25083117
2824 27.25083117
2825 27.25083117
2826 27.25083117
2827 27.11269015
2828 27.11269015
2829 27.5260638
2830 28.63790118
2831 28.63790118
2832 28.63790118
2833 27.88734233
2834 27.88734233
2835 27.23660386
2836 27.15466258
2837 26.96666338
2838 26.97177678
2839 27.42565178
2840 27.79172749
2841 27.79172749
2842 27.79172749
2843 27.79172749
2844 27.79172749
2845 27.73039297
2846 27.41054999
2847 27.01863763
2848 27.01863763
2849 27.01863763
2850 27.01863763
2851 26.71712963
2852 26.74817682
2853 26.74817682
2854 26.68784675
2855 26.68784675
2856 26.3209749
2857 25.61508084
2858 25.61508084
2859 25.61508084
2860 25.61508084
2861 25.78341144
2862 26.04959754
2863 26.04959754
2864 24.50338731
2865 24.24291119
2866 23.90764969
2867 23.90764969
2868 23.90764969
2869 23.98689718
2870 23.98689718
2871 24.4835861
2872 24.4835861
2873 25.0194422
2874 25.0194422
2875 24.97784285
2876 24.97784285
2877 24.44949758
2878 24.44949758
2879 24.44949758
2880 28.96448912
2881 28.96448912
2882 28.48987387
2883 27.84155043
2884 27.71574552
2885 27.71574552
2886 28.77323545
2887 28.95315339
2888 29.31302421
2889 29.7412288
2890 29.7412288
2891 30.90945802
2892 31.27828507
2893 31.67214057
2894 31.53862152
2895 31.53862152
2896 31.06452174
2897 30.63940974
2898 30.63940974
2899 30.63940974
2900 31.19009123
2901 31.24534756
2902 31.24534756
2903 31.24534756
2904 30.95439949
2905 30.95439949
2906 29.82166423
2907 31.09124822
2908 30.95864938
2909 30.95864938
2910 31.00112844
2911 31.00112844
2912 30.05251851
2913 30.04013953
2914 30.04013953
2915 30.04013953
2916 30.04013953
2917 30.04013953
2918 30.04013953
2919 30.04013953
2920 29.69353627
2921 29.69353627
2922 29.69353627
2923 25.78216394
2924 25.18342357
2925 24.89817724
2926 24.81956306
2927 24.77942559
2928 24.77942559
2929 25.4431935
2930 26.03660211
2931 26.03660211
2932 28.06546314
2933 27.68407223
2934 28.03704007
2935 28.03704007
2936 28.03704007
2937 27.91146564
2938 27.60457738
2939 27.60457738
2940 27.60457738
2941 27.71249185
2942 27.71249185
2943 27.71249185
2944 27.71249185
2945 27.71249185
2946 27.71249185
2947 27.71249185
2948 27.71249185
2949 27.71249185
2950 27.10750922
2951 27.10750922
2952 27.39938397
2953 26.0066527
2954 25.77952878
2955 25.77952878
2956 25.77952878
2957 25.76497609
2958 25.76497609
2959 25.79474554
2960 27.25229454
2961 26.38945048
2962 26.38945048
2963 26.38945048
2964 27.7217714
2965 28.23867837
2966 28.23867837
2967 27.04878533
2968 26.85414486
2969 26.85414486
2970 31.80658907
2971 31.6832946
2972 31.6832946
2973 31.68641789
2974 31.68641789
2975 31.68641789
2976 31.68641789
2977 31.68641789
2978 31.68641789
2979 31.68641789
2980 31.68641789
2981 31.68641789
2982 31.68641789
2983 31.58543648
2984 31.26725796
2985 31.30458133
2986 31.15794295
2987 31.28826342
2988 31.28826342
2989 31.28826342
2990 31.28826342
2991 30.86725075
2992 30.86725075
2993 30.86725075
2994 30.86725075
2995 30.58072338
2996 30.8543552
2997 30.6422548
2998 30.6422548
2999 30.6422548
3000 30.83625132
3001 30.83625132
3002 30.83625132
3003 30.26679808
3004 30.23932866
3005 28.78112226
3006 28.78112226
3007 28.78112226
3008 29.34790868
3009 28.96146963
3010 28.96146963
3011 28.96146963
3012 28.88461143
3013 28.88461143
3014 28.89917216
3015 28.78669821
3016 28.68823842
3017 28.68823842
3018 28.68823842
3019 28.64418104
3020 28.77992193
3021 28.77992193
3022 28.71322845
3023 28.71322845
3024 28.86835506
3025 28.86835506
3026 28.86835506
3027 28.86835506
3028 28.86835506
3029 28.81764307
3030 28.80521402
3031 28.76025545
3032 28.76025545
3033 29.14936581
3034 29.14936581
3035 29.22759278
