id;selectivity;cpuLoad;cpuRequested for 3/4/5/6/7/11;memory;bandwidth;instances
spout;1.0;10;10.0/10.0/10.0/10.0/10.0/10.0;50.0;0;1
sink;0.0;10;20.0/20.0/20.0/20.0/20.0/20.0;50.0;0;1
0;0.3;120;28.6/30.0/30.0/30.0/30.0/30.0;23.0;53;2
1;0.97;166;30.0/30.0/30.0/30.0/30.0/30.0;73.0;204;2
2;0.94;95;9.5/13.0/13.8/14.7/15.5/18.9;103.0;26;2
3;0.8;21;9.5/13.0/13.8/14.7/15.5/18.9;23.0;32;2
4;0.66;136;9.5/13.0/13.8/14.7/15.5/18.9;90.0;36;2
5;0.85;42;9.5/13.0/13.8/14.7/15.5/18.9;113.0;84;2
6;0.76;54;9.5/13.0/13.8/14.7/15.5/18.9;54.0;208;2
7;1.74;153;24.0/30.0/30.0/30.0/30.0/30.0;96.0;134;2
