x y label
480 10 AntSystem
480 10 AntSystem
480 10 AntSystem
540 0 AntSystem
510 12 AntSystem
510 12 AntSystem
410 8 AntSystem
350 0 AntSystem
350 0 AntSystem
440 0 AntSystem
350 0 AntSystem
350 0 AntSystem
480 4 AntSystem
480 0 AntSystem
570 4 AntSystem
540 10 AntSystem
540 10 AntSystem
540 10 AntSystem
510 0 AntSystem
480 0 AntSystem
480 0 AntSystem
510 0 AntSystem
510 0 AntSystem
540 14 AntSystem
510 7 AntSystem
350 0 AntSystem
350 0 AntSystem
510 8 AntSystem
510 14 AntSystem
510 14 AntSystem
