x y label
250 189 HybridSearch
480 88 HybridSearch
660 198 HybridSearch
250 110 HybridSearch
540 157 HybridSearch
540 151 HybridSearch
250 77 HybridSearch
450 88 HybridSearch
450 87 HybridSearch
450 104 HybridSearch
450 73 HybridSearch
630 246 HybridSearch
180 90 HybridSearch
350 91 HybridSearch
660 382 HybridSearch
350 101 HybridSearch
480 102 HybridSearch
660 369 HybridSearch
180 79 HybridSearch
380 115 HybridSearch
600 438 HybridSearch
250 149 HybridSearch
450 71 HybridSearch
450 63 HybridSearch
250 102 HybridSearch
480 124 HybridSearch
660 304 HybridSearch
330 177 HybridSearch
600 286 HybridSearch
350 90 HybridSearch
