x y label
660 79 DefaultScheduler
660 52 DefaultScheduler
660 60 DefaultScheduler
660 69 DefaultScheduler
660 73 DefaultScheduler
660 63 DefaultScheduler
660 63 DefaultScheduler
660 60 DefaultScheduler
660 65 DefaultScheduler
660 78 DefaultScheduler
160 35 DefaultScheduler
210 67 DefaultScheduler
160 62 DefaultScheduler
280 35 DefaultScheduler
160 32 DefaultScheduler
90 113 DefaultScheduler
210 50 DefaultScheduler
160 19 DefaultScheduler
230 57 DefaultScheduler
280 37 DefaultScheduler
190 110 DefaultScheduler
240 33 DefaultScheduler
190 214 DefaultScheduler
190 49 DefaultScheduler
190 164 DefaultScheduler
310 74 DefaultScheduler
310 52 DefaultScheduler
190 63 DefaultScheduler
190 145 DefaultScheduler
190 48 DefaultScheduler
340 79 DefaultScheduler
290 75 DefaultScheduler
290 79 DefaultScheduler
290 88 DefaultScheduler
290 81 DefaultScheduler
220 72 DefaultScheduler
220 57 DefaultScheduler
220 48 DefaultScheduler
360 71 DefaultScheduler
340 62 DefaultScheduler
440 89 DefaultScheduler
390 68 DefaultScheduler
250 65 DefaultScheduler
370 67 DefaultScheduler
510 79 DefaultScheduler
370 100 DefaultScheduler
440 113 DefaultScheduler
320 80 DefaultScheduler
320 100 DefaultScheduler
250 72 DefaultScheduler
540 78 DefaultScheduler
470 74 DefaultScheduler
350 70 DefaultScheduler
350 67 DefaultScheduler
470 70 DefaultScheduler
350 53 DefaultScheduler
400 82 DefaultScheduler
470 86 DefaultScheduler
540 51 DefaultScheduler
400 57 DefaultScheduler
