x y label
510 4125 AntSystem
510 6019 AntSystem
510 4809 AntSystem
540 4052 AntSystem
410 4381 AntSystem
410 3470 AntSystem
440 5190 AntSystem
440 5289 AntSystem
440 4250 AntSystem
540 3164 AntSystem
470 3622 AntSystem
470 3784 AntSystem
510 5915 AntSystem
510 5927 AntSystem
510 4979 AntSystem
510 3667 AntSystem
540 6269 AntSystem
540 6881 AntSystem
440 6044 AntSystem
630 5276 AntSystem
630 7294 AntSystem
480 5272 AntSystem
500 9213 AntSystem
500 7338 AntSystem
480 2481 AntSystem
440 3896 AntSystem
630 6228 AntSystem
510 4087 AntSystem
510 4727 AntSystem
510 5128 AntSystem
