<?xml version="1.0" encoding="UTF-8" standalone="no"?>
<!DOCTYPE svg PUBLIC "-//W3C//DTD SVG 1.1//EN" "http://www.w3.org/Graphics/SVG/1.1/DTD/svg11.dtd">
<!-- Generated by Microsoft Visio, SVG Export FogLayers2.svg Page-1 -->
<svg xmlns="http://www.w3.org/2000/svg" xmlns:xlink="http://www.w3.org/1999/xlink" xmlns:ev="http://www.w3.org/2001/xml-events"
		xmlns:v="http://schemas.microsoft.com/visio/2003/SVGExtensions/" width="9.30569in" height="7.53288in"
		viewBox="0 0 670.01 542.367" xml:space="preserve" color-interpolation-filters="sRGB" class="st14">
	<v:documentProperties v:langID="1031" v:metric="true" v:viewMarkup="false">
		<v:userDefs>
			<v:ud v:nameU="msvNoAutoConnect" v:val="VT0(1):26"/>
		</v:userDefs>
	</v:documentProperties>

	<style type="text/css">
	<![CDATA[
		.st1 {fill:#ffffff}
		.st2 {stroke:#000000;stroke-linecap:round;stroke-linejoin:round;stroke-width:1.75}
		.st3 {fill:#000000;stroke:none;stroke-linecap:round;stroke-linejoin:round;stroke-width:6.375}
		.st4 {fill:#ffffff;stroke:#000000;stroke-linecap:round;stroke-linejoin:round;stroke-width:0.75}
		.st5 {fill:#000000}
		.st6 {stroke:#000000;stroke-linecap:round;stroke-linejoin:round;stroke-width:0.75}
		.st7 {fill:none;stroke:#000000;stroke-linecap:round;stroke-linejoin:round;stroke-width:1.75}
		.st8 {stroke:#000000;stroke-dasharray:5.25,5.25;stroke-linecap:round;stroke-linejoin:round;stroke-width:1.75}
		.st9 {fill:#ffffff;stroke:#000000;stroke-linecap:round;stroke-linejoin:round;stroke-width:1.75}
		.st10 {fill:none;stroke:none;stroke-linecap:round;stroke-linejoin:round;stroke-width:0.75}
		.st11 {fill:#000000;font-family:Calibri;font-size:1.66667em}
		.st12 {fill:#000000;font-family:Calibri;font-size:2.50001em}
		.st13 {stroke:#000000;stroke-linecap:round;stroke-linejoin:round;stroke-width:3}
		.st14 {fill:none;fill-rule:evenodd;font-size:12px;overflow:visible;stroke-linecap:square;stroke-miterlimit:3}
	]]>
	</style>

	<g v:mID="0" v:index="1" v:groupContext="foregroundPage">
		<title>Page-1</title>
		<v:pageProperties v:drawingScale="0.0393701" v:pageScale="0.0393701" v:drawingUnits="24" v:shadowOffsetX="8.50394"
				v:shadowOffsetY="-8.50394"/>
		<v:layer v:name="Data Graphic" v:index="0"/>
		<v:layer v:name="Connector" v:index="1"/>
		<v:layer v:name="Annotations" v:index="2"/>
		<g id="shape126-1" v:mID="126" v:groupContext="shape" transform="translate(137.874,-238.364)">
			<title>Cloud.126</title>
			<v:userDefs>
				<v:ud v:nameU="visVersion" v:prompt="" v:val="VT0(15):26"/>
			</v:userDefs>
			<path d="M8.04 492.22 A12.8999 16.2773 0 0 1 14.23 460.96 A26.1595 33.0085 0 0 1 52.19 434.57 A30.0383 37.9029 0 0 1
						 84.71 428.7 A18.8367 23.7685 0 0 1 112.6 426.74 A21.4459 27.0609 0 0 1 146.69 436.52 A15.3345 19.3487 0
						 0 1 159.07 463.89 A18.9937 23.9658 0 0 1 143.58 502.98 A23.9621 30.2348 0 0 1 109.51 522.52 A28.2533 35.6494
						 0 0 1 63.04 530.35 A35.8147 45.1902 0 0 1 22.75 522.52 A14.1296 17.8291 0 0 1 8.04 492.22 Z" class="st1"/>
			<path d="M8.04 492.22 A12.8999 16.2773 0 0 1 14.23 460.96 A26.1595 33.0085 0 0 1 52.19 434.57 A30.0383 37.9029 0 0 1
						 84.71 428.7 A18.8367 23.7685 0 0 1 112.6 426.74 A21.4459 27.0609 0 0 1 146.69 436.52 A15.3345 19.3487 0
						 0 1 159.07 463.89 A18.9937 23.9658 0 0 1 143.58 502.98 A23.9621 30.2348 0 0 1 109.51 522.52 A28.2533 35.6494
						 0 0 1 63.04 530.35 A35.8147 45.1902 0 0 1 22.75 522.52 A14.1296 17.8291 0 0 1 8.04 492.22" class="st2"/>
			<path d="M16.55 493.2 A12.8642 16.2323 0 0 1 8.04 492.22" class="st2"/>
			<path d="M60.7 525.46 A12.9202 16.303 -180 0 0 63.04 530.35" class="st2"/>
			<path d="M110.67 516.66 A10.4298 13.1605 0 0 1 109.51 522.52" class="st2"/>
			<path d="M134.29 487.34 A10.9442 13.8096 0 0 1 143.58 502.98" class="st2"/>
			<path d="M154.43 469.75 A9.99156 12.6075 -180 0 0 159.07 463.89" class="st2"/>
			<path d="M56.83 438.48 A15.4079 19.4413 -180 0 0 52.19 434.57" class="st2"/>
		</g>
		<g id="shape125-10" v:mID="125" v:groupContext="shape" transform="translate(251.474,-421.516)">
			<title>Cloud</title>
			<v:userDefs>
				<v:ud v:nameU="visVersion" v:prompt="" v:val="VT0(15):26"/>
			</v:userDefs>
			<path d="M7.68 494.42 A12.3345 15.5639 0 0 1 13.6 464.53 A25.0129 31.5618 0 0 1 49.9 439.29 A28.7217 36.2416 0 0 1 81
						 433.68 A18.0111 22.7267 0 0 1 107.66 431.81 A20.506 25.8748 0 0 1 140.26 441.16 A14.6623 18.5006 0 0 1 152.1
						 467.33 A18.1612 22.9154 0 0 1 137.29 504.71 A22.9118 28.9096 0 0 1 104.71 523.39 A27.015 34.0869 0 0 1 60.27
						 530.88 A34.245 43.2095 0 0 1 21.76 523.39 A13.5103 17.0476 0 0 1 7.68 494.42 Z" class="st1"/>
			<path d="M7.68 494.42 A12.3345 15.5639 0 0 1 13.6 464.53 A25.0129 31.5618 0 0 1 49.9 439.29 A28.7217 36.2416 0 0 1 81
						 433.68 A18.0111 22.7267 0 0 1 107.66 431.81 A20.506 25.8748 0 0 1 140.26 441.16 A14.6623 18.5006 0 0 1 152.1
						 467.33 A18.1612 22.9154 0 0 1 137.29 504.71 A22.9118 28.9096 0 0 1 104.71 523.39 A27.015 34.0869 0 0 1 60.27
						 530.88 A34.245 43.2095 0 0 1 21.76 523.39 A13.5103 17.0476 0 0 1 7.68 494.42" class="st2"/>
			<path d="M15.82 495.36 A12.3004 15.5209 0 0 1 7.68 494.42" class="st2"/>
			<path d="M58.04 526.2 A12.3539 15.5884 -180 0 0 60.27 530.88" class="st2"/>
			<path d="M105.82 517.79 A9.97263 12.5837 0 0 1 104.71 523.39" class="st2"/>
			<path d="M128.4 489.75 A10.4645 13.2043 0 0 1 137.29 504.71" class="st2"/>
			<path d="M147.66 472.94 A9.55363 12.055 -180 0 0 152.1 467.33" class="st2"/>
			<path d="M54.34 443.03 A14.7326 18.5892 -180 0 0 49.9 439.29" class="st2"/>
		</g>
		<g id="group25-19" transform="translate(93.9369,-34.6723)" v:mID="25" v:groupContext="group">
			<title>Car</title>
			<g id="shape26-20" v:mID="26" v:groupContext="shape" transform="translate(9.66357,2.27374E-13)">
				<title>Sheet.26</title>
				<ellipse cx="6.44238" cy="536.182" rx="6.44238" ry="6.18468" class="st3"/>
			</g>
			<g id="shape27-22" v:mID="27" v:groupContext="shape" transform="translate(48.3179,2.27374E-13)">
				<title>Sheet.27</title>
				<ellipse cx="6.44238" cy="536.182" rx="6.44238" ry="6.18468" class="st3"/>
			</g>
			<g id="shape28-24" v:mID="28" v:groupContext="shape" transform="translate(0,-6.18468)">
				<title>Sheet.28</title>
				<path d="M62.81 526.91 C67.24 526.91 70.87 530.38 70.87 534.64 L70.87 539.27 C70.87 540.98 69.42 542.37 67.64 542.37
							 L63.62 542.37 C63.62 537.65 59.67 533.86 54.76 533.86 C49.85 533.86 45.9 537.65 45.9 542.37 L24.96 542.37
							 C24.96 537.65 21.02 533.86 16.11 533.86 C11.19 533.86 7.25 537.65 7.25 542.37 L6.44 542.37 C2.9 542.37
							 0 539.58 0 536.18 L0 528.22 C0 527.37 0.32 526.6 0.97 525.98 L10.95 516.31 C12.16 515.15 13.85 514.54
							 15.54 514.54 L39.14 514.54 C40.91 514.54 42.52 515.15 43.73 516.31 L53.87 525.98 C54.44 526.6 55.24
							 526.91 56.13 526.91 L62.81 526.91 ZM24.96 526.91 L24.96 517.63 L15.54 517.63 C14.74 517.63 13.93 517.94
							 13.29 518.56 L4.59 526.91 L24.96 526.91 ZM28.19 526.91 L50.17 526.91 L41.47 518.56 C40.91 517.94 40.1
							 517.63 39.22 517.63 L28.19 517.63 L28.19 526.91 Z" class="st3"/>
			</g>
		</g>
		<g id="group29-26" transform="translate(134.687,-77.1919)" v:mID="29" v:groupContext="group">
			<v:custProps>
				<v:cp v:nameU="AssetNumber" v:lbl="Asset Number" v:prompt="" v:type="0" v:format="" v:sortKey="Asset"
						v:invis="false" v:ask="false" v:langID="1033" v:cal="0"/>
				<v:cp v:nameU="SerialNumber" v:lbl="Serial Number" v:prompt="" v:type="0" v:format="" v:sortKey="Asset"
						v:invis="false" v:ask="false" v:langID="1033" v:cal="0"/>
				<v:cp v:nameU="Location" v:lbl="Location" v:prompt="" v:type="0" v:format="" v:sortKey="Asset" v:invis="false"
						v:ask="false" v:langID="1033" v:cal="0"/>
				<v:cp v:nameU="Building" v:lbl="Building" v:prompt="" v:type="0" v:format="" v:sortKey="Asset" v:invis="false"
						v:ask="false" v:langID="1033" v:cal="0"/>
				<v:cp v:nameU="Room" v:lbl="Room" v:prompt="" v:type="0" v:format="" v:sortKey="Asset" v:invis="false"
						v:ask="false" v:langID="1033" v:cal="0"/>
				<v:cp v:nameU="Manufacturer" v:lbl="Manufacturer" v:prompt="" v:type="0" v:format="" v:sortKey="Equipment"
						v:invis="false" v:ask="false" v:langID="1033" v:cal="0"/>
				<v:cp v:nameU="ProductNumber" v:lbl="Product Number" v:prompt="" v:type="0" v:format="" v:sortKey="Equipment"
						v:invis="false" v:ask="false" v:langID="1033" v:cal="0"/>
				<v:cp v:nameU="PartNumber" v:lbl="Part Number" v:prompt="" v:type="0" v:format="" v:sortKey="Equipment"
						v:invis="false" v:ask="false" v:langID="1033" v:cal="0"/>
				<v:cp v:nameU="ProductDescription" v:lbl="Product Description" v:prompt="" v:type="0" v:format=""
						v:sortKey="Equipment" v:invis="false" v:ask="false" v:langID="1033" v:cal="0"/>
				<v:cp v:nameU="NetworkName" v:lbl="Network Name" v:prompt="" v:type="0" v:format="" v:sortKey="Network"
						v:invis="false" v:ask="false" v:langID="1033" v:cal="0"/>
				<v:cp v:nameU="IPAddress" v:lbl="IP Address" v:prompt="" v:type="0" v:format="" v:sortKey="Network" v:invis="false"
						v:ask="false" v:langID="1033" v:cal="0"/>
				<v:cp v:nameU="SubnetMask" v:lbl="Subnet Mask" v:prompt="" v:type="0" v:format="" v:sortKey="Network"
						v:invis="false" v:ask="false" v:langID="1033" v:cal="0"/>
				<v:cp v:nameU="AdminInterface" v:lbl="Administrative Interface" v:prompt="" v:type="0" v:format=""
						v:sortKey="Network" v:invis="false" v:ask="false" v:langID="1033" v:cal="0"/>
				<v:cp v:nameU="NumberofPorts" v:lbl="Number of Ports" v:prompt="" v:type="0" v:format="" v:sortKey="Network"
						v:invis="false" v:ask="false" v:langID="1033" v:cal="0"/>
				<v:cp v:nameU="CommunityString" v:lbl="Community String" v:prompt="" v:type="0" v:format="" v:sortKey="Network"
						v:invis="false" v:ask="false" v:langID="1033" v:cal="0"/>
				<v:cp v:nameU="NetworkDescription" v:lbl="Network Description" v:prompt="" v:type="0" v:format=""
						v:sortKey="Network" v:invis="false" v:ask="false" v:langID="1033" v:cal="0"/>
				<v:cp v:nameU="MACAddress" v:lbl="MAC Address" v:prompt="" v:type="0" v:format="" v:sortKey="Network"
						v:invis="false" v:ask="false" v:langID="1033" v:cal="0"/>
				<v:cp v:nameU="CPU" v:lbl="CPU" v:prompt="" v:type="0" v:format="" v:sortKey="Workstation" v:invis="false"
						v:ask="false" v:langID="1033" v:cal="0"/>
				<v:cp v:nameU="Memory" v:lbl="Memory" v:prompt="" v:type="0" v:format="" v:sortKey="Workstation" v:invis="false"
						v:ask="false" v:langID="1033" v:cal="0"/>
				<v:cp v:nameU="OperatingSystem" v:lbl="Operating System" v:prompt="" v:type="0" v:format="" v:sortKey="Workstation"
						v:invis="false" v:ask="false" v:langID="1033" v:cal="0"/>
				<v:cp v:nameU="HardDriveSize" v:lbl="Hard Drive Capacity" v:prompt="" v:type="0" v:format=""
						v:sortKey="Workstation" v:invis="false" v:ask="false" v:langID="1033" v:cal="0"/>
				<v:cp v:nameU="ShapeClass" v:lbl="ShapeClass" v:prompt="" v:type="0" v:format="" v:sortKey="" v:invis="true"
						v:ask="false" v:langID="1033" v:cal="0" v:val="VT4(Equipment)"/>
				<v:cp v:nameU="ShapeType" v:lbl="ShapeType" v:prompt="" v:type="0" v:format="" v:sortKey="" v:invis="true"
						v:ask="false" v:langID="1033" v:cal="0" v:val="VT4(MobilePhone)"/>
			</v:custProps>
			<v:userDefs>
				<v:ud v:nameU="visVersion" v:prompt="" v:val="VT0(15):26"/>
				<v:ud v:nameU="ShapeClass" v:prompt="" v:val="VT0(5):26"/>
				<v:ud v:nameU="SolSH" v:prompt="" v:val="VT15({BF0433D9-CD73-4EB5-8390-8653BE590246}):41"/>
				<v:ud v:nameU="visLegendShape" v:prompt="" v:val="VT0(2):26"/>
			</v:userDefs>
			<title>Smart phone</title>
			<g id="shape30-27" v:mID="30" v:groupContext="shape" transform="translate(11.6965,0)">
				<title>Sheet.30</title>
				<path d="M0 539.28 C0 540.37 0.88 541.37 1.96 541.52 C1.96 541.52 8.36 542.37 13.11 542.37 C17.85 542.37 24.25 541.52
							 24.25 541.52 C25.33 541.37 26.21 540.37 26.21 539.28 L26.21 495.85 C26.21 494.76 25.33 493.75 24.25
							 493.61 C24.25 493.61 17.97 492.76 13.11 492.76 C8.36 492.76 1.96 493.61 1.96 493.61 C0.88 493.75 0 494.76
							 0 495.85 L0 539.28 Z" class="st4"/>
			</g>
			<g id="shape31-29" v:mID="31" v:groupContext="shape" transform="translate(13.6745,-6.09124)">
				<title>Sheet.31</title>
				<v:userDefs>
					<v:ud v:nameU="SurroundingRegionColor" v:prompt="" v:val="VT0(1):26"/>
				</v:userDefs>
				<rect x="0" y="505.904" width="22.2572" height="36.4632" class="st4"/>
			</g>
			<g id="shape32-31" v:mID="32" v:groupContext="shape" transform="translate(20.715,-2.47411)">
				<title>Sheet.32</title>
				<v:userDefs>
					<v:ud v:nameU="SurroundingRegionColor" v:prompt="" v:val="VT0(1):26"/>
				</v:userDefs>
				<path d="M1.76 541.48 a0.882062 0.882062 -180 1 0 -1.76412 0 a0.882062 0.882062 -180 1 0 1.76412 0 ZM4.97 541.48
							 a0.882062 0.882062 -180 1 0 -1.76412 0 a0.882062 0.882062 -180 1 0 1.76412 0 ZM8.18 541.48 a0.882579
							 0.882579 -180 1 0 -1.76516 0 a0.882579 0.882579 -180 1 0 1.76516 0 Z" class="st5"/>
				<path d="M0.81 499.29 L7.37 499.29" class="st6"/>
			</g>
		</g>
		<g id="group33-34" transform="translate(76.4755,-77.1919)" v:mID="33" v:groupContext="group">
			<title>Security Camera</title>
			<g id="shape34-35" v:mID="34" v:groupContext="shape">
				<title>Sheet.34</title>
				<path d="M52.65 512.82 L37.2 525.22 L25.04 520.12 L25.04 521.21 C25.04 526.83 20.53 531.42 15.02 531.42 L4.29 531.42
							 L4.29 542.37 L0 542.37 L0 492.76 L4.29 492.76 L4.29 527.05 L15.02 527.05 C18.17 527.05 20.75 524.42
							 20.75 521.21 L20.75 518.37 L7.8 512.82 L14.38 496.63 L52.65 512.82 ZM22.89 514.65 C24.47 514.65 25.75
							 513.33 25.75 511.73 C25.75 510.12 24.47 508.81 22.89 508.81 C21.32 508.81 20.03 510.12 20.03 511.73
							 C20.03 513.33 21.32 514.65 22.89 514.65 Z" class="st3"/>
			</g>
			<g id="shape35-37" v:mID="35" v:groupContext="shape" transform="translate(44.7819,-17.2893)">
				<title>Sheet.35</title>
				<path d="M6.37 535.07 L11.59 537.26 L5.22 542.37 L0 540.18 L6.37 535.07 Z" class="st3"/>
			</g>
		</g>
		<g id="shape36-39" v:mID="36" v:groupContext="shape" transform="translate(56.7301,-9.8691)">
			<title>Circle</title>
			<v:userDefs>
				<v:ud v:nameU="visVersion" v:val="VT0(15):26"/>
			</v:userDefs>
			<path d="M0 469.73 A72.6399 72.6399 0 0 1 145.28 469.73 A72.6399 72.6399 0 1 1 0 469.73 Z" class="st7"/>
		</g>
		<g id="group37-41" transform="translate(294.136,-28.5128)" v:mID="37" v:groupContext="group">
			<title>Car.37</title>
			<g id="shape38-42" v:mID="38" v:groupContext="shape" transform="translate(9.66357,2.27374E-13)">
				<title>Sheet.38</title>
				<ellipse cx="6.44238" cy="536.182" rx="6.44238" ry="6.18468" class="st3"/>
			</g>
			<g id="shape39-44" v:mID="39" v:groupContext="shape" transform="translate(48.3179,2.27374E-13)">
				<title>Sheet.39</title>
				<ellipse cx="6.44238" cy="536.182" rx="6.44238" ry="6.18468" class="st3"/>
			</g>
			<g id="shape40-46" v:mID="40" v:groupContext="shape" transform="translate(0,-6.18468)">
				<title>Sheet.40</title>
				<path d="M62.81 526.91 C67.24 526.91 70.87 530.38 70.87 534.64 L70.87 539.27 C70.87 540.98 69.42 542.37 67.64 542.37
							 L63.62 542.37 C63.62 537.65 59.67 533.86 54.76 533.86 C49.85 533.86 45.9 537.65 45.9 542.37 L24.96 542.37
							 C24.96 537.65 21.02 533.86 16.11 533.86 C11.19 533.86 7.25 537.65 7.25 542.37 L6.44 542.37 C2.9 542.37
							 0 539.58 0 536.18 L0 528.22 C0 527.37 0.32 526.6 0.97 525.98 L10.95 516.31 C12.16 515.15 13.85 514.54
							 15.54 514.54 L39.14 514.54 C40.91 514.54 42.52 515.15 43.73 516.31 L53.87 525.98 C54.44 526.6 55.24
							 526.91 56.13 526.91 L62.81 526.91 ZM24.96 526.91 L24.96 517.63 L15.54 517.63 C14.74 517.63 13.93 517.94
							 13.29 518.56 L4.59 526.91 L24.96 526.91 ZM28.19 526.91 L50.17 526.91 L41.47 518.56 C40.91 517.94 40.1
							 517.63 39.22 517.63 L28.19 517.63 L28.19 526.91 Z" class="st3"/>
			</g>
		</g>
		<g id="group41-48" transform="translate(334.886,-71.0325)" v:mID="41" v:groupContext="group">
			<v:custProps>
				<v:cp v:nameU="AssetNumber" v:lbl="Asset Number" v:prompt="" v:type="0" v:format="" v:sortKey="Asset"
						v:invis="false" v:ask="false" v:langID="1033" v:cal="0"/>
				<v:cp v:nameU="SerialNumber" v:lbl="Serial Number" v:prompt="" v:type="0" v:format="" v:sortKey="Asset"
						v:invis="false" v:ask="false" v:langID="1033" v:cal="0"/>
				<v:cp v:nameU="Location" v:lbl="Location" v:prompt="" v:type="0" v:format="" v:sortKey="Asset" v:invis="false"
						v:ask="false" v:langID="1033" v:cal="0"/>
				<v:cp v:nameU="Building" v:lbl="Building" v:prompt="" v:type="0" v:format="" v:sortKey="Asset" v:invis="false"
						v:ask="false" v:langID="1033" v:cal="0"/>
				<v:cp v:nameU="Room" v:lbl="Room" v:prompt="" v:type="0" v:format="" v:sortKey="Asset" v:invis="false"
						v:ask="false" v:langID="1033" v:cal="0"/>
				<v:cp v:nameU="Manufacturer" v:lbl="Manufacturer" v:prompt="" v:type="0" v:format="" v:sortKey="Equipment"
						v:invis="false" v:ask="false" v:langID="1033" v:cal="0"/>
				<v:cp v:nameU="ProductNumber" v:lbl="Product Number" v:prompt="" v:type="0" v:format="" v:sortKey="Equipment"
						v:invis="false" v:ask="false" v:langID="1033" v:cal="0"/>
				<v:cp v:nameU="PartNumber" v:lbl="Part Number" v:prompt="" v:type="0" v:format="" v:sortKey="Equipment"
						v:invis="false" v:ask="false" v:langID="1033" v:cal="0"/>
				<v:cp v:nameU="ProductDescription" v:lbl="Product Description" v:prompt="" v:type="0" v:format=""
						v:sortKey="Equipment" v:invis="false" v:ask="false" v:langID="1033" v:cal="0"/>
				<v:cp v:nameU="NetworkName" v:lbl="Network Name" v:prompt="" v:type="0" v:format="" v:sortKey="Network"
						v:invis="false" v:ask="false" v:langID="1033" v:cal="0"/>
				<v:cp v:nameU="IPAddress" v:lbl="IP Address" v:prompt="" v:type="0" v:format="" v:sortKey="Network" v:invis="false"
						v:ask="false" v:langID="1033" v:cal="0"/>
				<v:cp v:nameU="SubnetMask" v:lbl="Subnet Mask" v:prompt="" v:type="0" v:format="" v:sortKey="Network"
						v:invis="false" v:ask="false" v:langID="1033" v:cal="0"/>
				<v:cp v:nameU="AdminInterface" v:lbl="Administrative Interface" v:prompt="" v:type="0" v:format=""
						v:sortKey="Network" v:invis="false" v:ask="false" v:langID="1033" v:cal="0"/>
				<v:cp v:nameU="NumberofPorts" v:lbl="Number of Ports" v:prompt="" v:type="0" v:format="" v:sortKey="Network"
						v:invis="false" v:ask="false" v:langID="1033" v:cal="0"/>
				<v:cp v:nameU="CommunityString" v:lbl="Community String" v:prompt="" v:type="0" v:format="" v:sortKey="Network"
						v:invis="false" v:ask="false" v:langID="1033" v:cal="0"/>
				<v:cp v:nameU="NetworkDescription" v:lbl="Network Description" v:prompt="" v:type="0" v:format=""
						v:sortKey="Network" v:invis="false" v:ask="false" v:langID="1033" v:cal="0"/>
				<v:cp v:nameU="MACAddress" v:lbl="MAC Address" v:prompt="" v:type="0" v:format="" v:sortKey="Network"
						v:invis="false" v:ask="false" v:langID="1033" v:cal="0"/>
				<v:cp v:nameU="CPU" v:lbl="CPU" v:prompt="" v:type="0" v:format="" v:sortKey="Workstation" v:invis="false"
						v:ask="false" v:langID="1033" v:cal="0"/>
				<v:cp v:nameU="Memory" v:lbl="Memory" v:prompt="" v:type="0" v:format="" v:sortKey="Workstation" v:invis="false"
						v:ask="false" v:langID="1033" v:cal="0"/>
				<v:cp v:nameU="OperatingSystem" v:lbl="Operating System" v:prompt="" v:type="0" v:format="" v:sortKey="Workstation"
						v:invis="false" v:ask="false" v:langID="1033" v:cal="0"/>
				<v:cp v:nameU="HardDriveSize" v:lbl="Hard Drive Capacity" v:prompt="" v:type="0" v:format=""
						v:sortKey="Workstation" v:invis="false" v:ask="false" v:langID="1033" v:cal="0"/>
				<v:cp v:nameU="ShapeClass" v:lbl="ShapeClass" v:prompt="" v:type="0" v:format="" v:sortKey="" v:invis="true"
						v:ask="false" v:langID="1033" v:cal="0" v:val="VT4(Equipment)"/>
				<v:cp v:nameU="ShapeType" v:lbl="ShapeType" v:prompt="" v:type="0" v:format="" v:sortKey="" v:invis="true"
						v:ask="false" v:langID="1033" v:cal="0" v:val="VT4(MobilePhone)"/>
			</v:custProps>
			<v:userDefs>
				<v:ud v:nameU="visVersion" v:prompt="" v:val="VT0(15):26"/>
				<v:ud v:nameU="ShapeClass" v:prompt="" v:val="VT0(5):26"/>
				<v:ud v:nameU="SolSH" v:prompt="" v:val="VT15({BF0433D9-CD73-4EB5-8390-8653BE590246}):41"/>
				<v:ud v:nameU="visLegendShape" v:prompt="" v:val="VT0(2):26"/>
			</v:userDefs>
			<title>Smart phone.41</title>
			<g id="shape42-49" v:mID="42" v:groupContext="shape" transform="translate(11.6965,0)">
				<title>Sheet.42</title>
				<path d="M0 539.28 C0 540.37 0.88 541.37 1.96 541.52 C1.96 541.52 8.36 542.37 13.11 542.37 C17.85 542.37 24.25 541.52
							 24.25 541.52 C25.33 541.37 26.21 540.37 26.21 539.28 L26.21 495.85 C26.21 494.76 25.33 493.75 24.25
							 493.61 C24.25 493.61 17.97 492.76 13.11 492.76 C8.36 492.76 1.96 493.61 1.96 493.61 C0.88 493.75 0 494.76
							 0 495.85 L0 539.28 Z" class="st4"/>
			</g>
			<g id="shape43-51" v:mID="43" v:groupContext="shape" transform="translate(13.6745,-6.09124)">
				<title>Sheet.43</title>
				<v:userDefs>
					<v:ud v:nameU="SurroundingRegionColor" v:prompt="" v:val="VT0(1):26"/>
				</v:userDefs>
				<rect x="0" y="505.904" width="22.2572" height="36.4632" class="st4"/>
			</g>
			<g id="shape44-53" v:mID="44" v:groupContext="shape" transform="translate(20.715,-2.47411)">
				<title>Sheet.44</title>
				<v:userDefs>
					<v:ud v:nameU="SurroundingRegionColor" v:prompt="" v:val="VT0(1):26"/>
				</v:userDefs>
				<path d="M1.76 541.48 a0.882062 0.882062 -180 1 0 -1.76412 0 a0.882062 0.882062 -180 1 0 1.76412 0 ZM4.97 541.48
							 a0.882062 0.882062 -180 1 0 -1.76412 0 a0.882062 0.882062 -180 1 0 1.76412 0 ZM8.18 541.48 a0.882579
							 0.882579 -180 1 0 -1.76516 0 a0.882579 0.882579 -180 1 0 1.76516 0 Z" class="st5"/>
				<path d="M0.81 499.29 L7.37 499.29" class="st6"/>
			</g>
		</g>
		<g id="group45-56" transform="translate(276.674,-71.0325)" v:mID="45" v:groupContext="group">
			<title>Security Camera.45</title>
			<g id="shape46-57" v:mID="46" v:groupContext="shape">
				<title>Sheet.46</title>
				<path d="M52.65 512.82 L37.2 525.22 L25.04 520.12 L25.04 521.21 C25.04 526.83 20.53 531.42 15.02 531.42 L4.29 531.42
							 L4.29 542.37 L0 542.37 L0 492.76 L4.29 492.76 L4.29 527.05 L15.02 527.05 C18.17 527.05 20.75 524.42
							 20.75 521.21 L20.75 518.37 L7.8 512.82 L14.38 496.63 L52.65 512.82 ZM22.89 514.65 C24.47 514.65 25.75
							 513.33 25.75 511.73 C25.75 510.12 24.47 508.81 22.89 508.81 C21.32 508.81 20.03 510.12 20.03 511.73
							 C20.03 513.33 21.32 514.65 22.89 514.65 Z" class="st3"/>
			</g>
			<g id="shape47-59" v:mID="47" v:groupContext="shape" transform="translate(44.7819,-17.2893)">
				<title>Sheet.47</title>
				<path d="M6.37 535.07 L11.59 537.26 L5.22 542.37 L0 540.18 L6.37 535.07 Z" class="st3"/>
			</g>
		</g>
		<g id="shape48-61" v:mID="48" v:groupContext="shape" transform="translate(256.929,-3.70965)">
			<title>Circle.48</title>
			<v:userDefs>
				<v:ud v:nameU="visVersion" v:val="VT0(15):26"/>
			</v:userDefs>
			<path d="M0 469.73 A72.6399 72.6399 0 0 1 145.28 469.73 A72.6399 72.6399 0 1 1 0 469.73 Z" class="st7"/>
		</g>
		<g id="group49-63" transform="translate(494.335,-28.5128)" v:mID="49" v:groupContext="group">
			<title>Car.49</title>
			<g id="shape50-64" v:mID="50" v:groupContext="shape" transform="translate(9.66357,2.27374E-13)">
				<title>Sheet.50</title>
				<ellipse cx="6.44238" cy="536.182" rx="6.44238" ry="6.18468" class="st3"/>
			</g>
			<g id="shape51-66" v:mID="51" v:groupContext="shape" transform="translate(48.3179,2.27374E-13)">
				<title>Sheet.51</title>
				<ellipse cx="6.44238" cy="536.182" rx="6.44238" ry="6.18468" class="st3"/>
			</g>
			<g id="shape52-68" v:mID="52" v:groupContext="shape" transform="translate(0,-6.18468)">
				<title>Sheet.52</title>
				<path d="M62.81 526.91 C67.24 526.91 70.87 530.38 70.87 534.64 L70.87 539.27 C70.87 540.98 69.42 542.37 67.64 542.37
							 L63.62 542.37 C63.62 537.65 59.67 533.86 54.76 533.86 C49.85 533.86 45.9 537.65 45.9 542.37 L24.96 542.37
							 C24.96 537.65 21.02 533.86 16.11 533.86 C11.19 533.86 7.25 537.65 7.25 542.37 L6.44 542.37 C2.9 542.37
							 0 539.58 0 536.18 L0 528.22 C0 527.37 0.32 526.6 0.97 525.98 L10.95 516.31 C12.16 515.15 13.85 514.54
							 15.54 514.54 L39.14 514.54 C40.91 514.54 42.52 515.15 43.73 516.31 L53.87 525.98 C54.44 526.6 55.24
							 526.91 56.13 526.91 L62.81 526.91 ZM24.96 526.91 L24.96 517.63 L15.54 517.63 C14.74 517.63 13.93 517.94
							 13.29 518.56 L4.59 526.91 L24.96 526.91 ZM28.19 526.91 L50.17 526.91 L41.47 518.56 C40.91 517.94 40.1
							 517.63 39.22 517.63 L28.19 517.63 L28.19 526.91 Z" class="st3"/>
			</g>
		</g>
		<g id="group53-70" transform="translate(535.085,-71.0325)" v:mID="53" v:groupContext="group">
			<v:custProps>
				<v:cp v:nameU="AssetNumber" v:lbl="Asset Number" v:prompt="" v:type="0" v:format="" v:sortKey="Asset"
						v:invis="false" v:ask="false" v:langID="1033" v:cal="0"/>
				<v:cp v:nameU="SerialNumber" v:lbl="Serial Number" v:prompt="" v:type="0" v:format="" v:sortKey="Asset"
						v:invis="false" v:ask="false" v:langID="1033" v:cal="0"/>
				<v:cp v:nameU="Location" v:lbl="Location" v:prompt="" v:type="0" v:format="" v:sortKey="Asset" v:invis="false"
						v:ask="false" v:langID="1033" v:cal="0"/>
				<v:cp v:nameU="Building" v:lbl="Building" v:prompt="" v:type="0" v:format="" v:sortKey="Asset" v:invis="false"
						v:ask="false" v:langID="1033" v:cal="0"/>
				<v:cp v:nameU="Room" v:lbl="Room" v:prompt="" v:type="0" v:format="" v:sortKey="Asset" v:invis="false"
						v:ask="false" v:langID="1033" v:cal="0"/>
				<v:cp v:nameU="Manufacturer" v:lbl="Manufacturer" v:prompt="" v:type="0" v:format="" v:sortKey="Equipment"
						v:invis="false" v:ask="false" v:langID="1033" v:cal="0"/>
				<v:cp v:nameU="ProductNumber" v:lbl="Product Number" v:prompt="" v:type="0" v:format="" v:sortKey="Equipment"
						v:invis="false" v:ask="false" v:langID="1033" v:cal="0"/>
				<v:cp v:nameU="PartNumber" v:lbl="Part Number" v:prompt="" v:type="0" v:format="" v:sortKey="Equipment"
						v:invis="false" v:ask="false" v:langID="1033" v:cal="0"/>
				<v:cp v:nameU="ProductDescription" v:lbl="Product Description" v:prompt="" v:type="0" v:format=""
						v:sortKey="Equipment" v:invis="false" v:ask="false" v:langID="1033" v:cal="0"/>
				<v:cp v:nameU="NetworkName" v:lbl="Network Name" v:prompt="" v:type="0" v:format="" v:sortKey="Network"
						v:invis="false" v:ask="false" v:langID="1033" v:cal="0"/>
				<v:cp v:nameU="IPAddress" v:lbl="IP Address" v:prompt="" v:type="0" v:format="" v:sortKey="Network" v:invis="false"
						v:ask="false" v:langID="1033" v:cal="0"/>
				<v:cp v:nameU="SubnetMask" v:lbl="Subnet Mask" v:prompt="" v:type="0" v:format="" v:sortKey="Network"
						v:invis="false" v:ask="false" v:langID="1033" v:cal="0"/>
				<v:cp v:nameU="AdminInterface" v:lbl="Administrative Interface" v:prompt="" v:type="0" v:format=""
						v:sortKey="Network" v:invis="false" v:ask="false" v:langID="1033" v:cal="0"/>
				<v:cp v:nameU="NumberofPorts" v:lbl="Number of Ports" v:prompt="" v:type="0" v:format="" v:sortKey="Network"
						v:invis="false" v:ask="false" v:langID="1033" v:cal="0"/>
				<v:cp v:nameU="CommunityString" v:lbl="Community String" v:prompt="" v:type="0" v:format="" v:sortKey="Network"
						v:invis="false" v:ask="false" v:langID="1033" v:cal="0"/>
				<v:cp v:nameU="NetworkDescription" v:lbl="Network Description" v:prompt="" v:type="0" v:format=""
						v:sortKey="Network" v:invis="false" v:ask="false" v:langID="1033" v:cal="0"/>
				<v:cp v:nameU="MACAddress" v:lbl="MAC Address" v:prompt="" v:type="0" v:format="" v:sortKey="Network"
						v:invis="false" v:ask="false" v:langID="1033" v:cal="0"/>
				<v:cp v:nameU="CPU" v:lbl="CPU" v:prompt="" v:type="0" v:format="" v:sortKey="Workstation" v:invis="false"
						v:ask="false" v:langID="1033" v:cal="0"/>
				<v:cp v:nameU="Memory" v:lbl="Memory" v:prompt="" v:type="0" v:format="" v:sortKey="Workstation" v:invis="false"
						v:ask="false" v:langID="1033" v:cal="0"/>
				<v:cp v:nameU="OperatingSystem" v:lbl="Operating System" v:prompt="" v:type="0" v:format="" v:sortKey="Workstation"
						v:invis="false" v:ask="false" v:langID="1033" v:cal="0"/>
				<v:cp v:nameU="HardDriveSize" v:lbl="Hard Drive Capacity" v:prompt="" v:type="0" v:format=""
						v:sortKey="Workstation" v:invis="false" v:ask="false" v:langID="1033" v:cal="0"/>
				<v:cp v:nameU="ShapeClass" v:lbl="ShapeClass" v:prompt="" v:type="0" v:format="" v:sortKey="" v:invis="true"
						v:ask="false" v:langID="1033" v:cal="0" v:val="VT4(Equipment)"/>
				<v:cp v:nameU="ShapeType" v:lbl="ShapeType" v:prompt="" v:type="0" v:format="" v:sortKey="" v:invis="true"
						v:ask="false" v:langID="1033" v:cal="0" v:val="VT4(MobilePhone)"/>
			</v:custProps>
			<v:userDefs>
				<v:ud v:nameU="visVersion" v:prompt="" v:val="VT0(15):26"/>
				<v:ud v:nameU="ShapeClass" v:prompt="" v:val="VT0(5):26"/>
				<v:ud v:nameU="SolSH" v:prompt="" v:val="VT15({BF0433D9-CD73-4EB5-8390-8653BE590246}):41"/>
				<v:ud v:nameU="visLegendShape" v:prompt="" v:val="VT0(2):26"/>
			</v:userDefs>
			<title>Smart phone.53</title>
			<g id="shape54-71" v:mID="54" v:groupContext="shape" transform="translate(11.6965,0)">
				<title>Sheet.54</title>
				<path d="M0 539.28 C0 540.37 0.88 541.37 1.96 541.52 C1.96 541.52 8.36 542.37 13.11 542.37 C17.85 542.37 24.25 541.52
							 24.25 541.52 C25.33 541.37 26.21 540.37 26.21 539.28 L26.21 495.85 C26.21 494.76 25.33 493.75 24.25
							 493.61 C24.25 493.61 17.97 492.76 13.11 492.76 C8.36 492.76 1.96 493.61 1.96 493.61 C0.88 493.75 0 494.76
							 0 495.85 L0 539.28 Z" class="st4"/>
			</g>
			<g id="shape55-73" v:mID="55" v:groupContext="shape" transform="translate(13.6745,-6.09124)">
				<title>Sheet.55</title>
				<v:userDefs>
					<v:ud v:nameU="SurroundingRegionColor" v:prompt="" v:val="VT0(1):26"/>
				</v:userDefs>
				<rect x="0" y="505.904" width="22.2572" height="36.4632" class="st4"/>
			</g>
			<g id="shape56-75" v:mID="56" v:groupContext="shape" transform="translate(20.715,-2.47411)">
				<title>Sheet.56</title>
				<v:userDefs>
					<v:ud v:nameU="SurroundingRegionColor" v:prompt="" v:val="VT0(1):26"/>
				</v:userDefs>
				<path d="M1.76 541.48 a0.882062 0.882062 -180 1 0 -1.76412 0 a0.882062 0.882062 -180 1 0 1.76412 0 ZM4.97 541.48
							 a0.882062 0.882062 -180 1 0 -1.76412 0 a0.882062 0.882062 -180 1 0 1.76412 0 ZM8.18 541.48 a0.882579
							 0.882579 -180 1 0 -1.76516 0 a0.882579 0.882579 -180 1 0 1.76516 0 Z" class="st5"/>
				<path d="M0.81 499.29 L7.37 499.29" class="st6"/>
			</g>
		</g>
		<g id="group57-78" transform="translate(476.873,-71.0325)" v:mID="57" v:groupContext="group">
			<title>Security Camera.57</title>
			<g id="shape58-79" v:mID="58" v:groupContext="shape">
				<title>Sheet.58</title>
				<path d="M52.65 512.82 L37.2 525.22 L25.04 520.12 L25.04 521.21 C25.04 526.83 20.53 531.42 15.02 531.42 L4.29 531.42
							 L4.29 542.37 L0 542.37 L0 492.76 L4.29 492.76 L4.29 527.05 L15.02 527.05 C18.17 527.05 20.75 524.42
							 20.75 521.21 L20.75 518.37 L7.8 512.82 L14.38 496.63 L52.65 512.82 ZM22.89 514.65 C24.47 514.65 25.75
							 513.33 25.75 511.73 C25.75 510.12 24.47 508.81 22.89 508.81 C21.32 508.81 20.03 510.12 20.03 511.73
							 C20.03 513.33 21.32 514.65 22.89 514.65 Z" class="st3"/>
			</g>
			<g id="shape59-81" v:mID="59" v:groupContext="shape" transform="translate(44.7819,-17.2893)">
				<title>Sheet.59</title>
				<path d="M6.37 535.07 L11.59 537.26 L5.22 542.37 L0 540.18 L6.37 535.07 Z" class="st3"/>
			</g>
		</g>
		<g id="shape60-83" v:mID="60" v:groupContext="shape" transform="translate(457.128,-3.70965)">
			<title>Circle.60</title>
			<v:userDefs>
				<v:ud v:nameU="visVersion" v:val="VT0(15):26"/>
			</v:userDefs>
			<path d="M0 469.73 A72.6399 72.6399 0 0 1 145.28 469.73 A72.6399 72.6399 0 1 1 0 469.73 Z" class="st7"/>
		</g>
		<g id="group61-85" transform="translate(280.76,-441.04)" v:mID="61" v:groupContext="group">
			<v:custProps>
				<v:cp v:nameU="ShapeClass" v:lbl="ShapeClass" v:prompt="" v:type="0" v:format="" v:sortKey="" v:invis="true"
						v:ask="false" v:langID="1033" v:cal="0" v:val="VT4(Location)"/>
				<v:cp v:nameU="ShapeType" v:lbl="ShapeType" v:prompt="" v:type="0" v:format="" v:sortKey="" v:invis="true"
						v:ask="false" v:langID="1033" v:cal="0" v:val="VT4(Data Center)"/>
			</v:custProps>
			<v:userDefs>
				<v:ud v:nameU="visVersion" v:prompt="" v:val="VT0(15):26"/>
				<v:ud v:nameU="ShapeClass" v:prompt="" v:val="VT0(5):26"/>
				<v:ud v:nameU="SolSH" v:prompt="" v:val="VT15({BF0433D9-CD73-4EB5-8390-8653BE590246}):41"/>
				<v:ud v:nameU="visLegendShape" v:prompt="" v:val="VT0(2):26"/>
			</v:userDefs>
			<title>Data Center</title>
			<g id="shape62-86" v:mID="62" v:groupContext="shape" transform="translate(0,-13.8438)">
				<title>Sheet.62</title>
				<ellipse cx="48.8091" cy="528.526" rx="48.8091" ry="13.8414" class="st4"/>
			</g>
			<g id="shape63-88" v:mID="63" v:groupContext="shape" transform="translate(8.60302,-22.8344)">
				<title>Sheet.63</title>
				<path d="M52 504.52 L27.84 504.52 L27.84 542.37 L52 542.37 L52 504.52 ZM24.16 504.52 L0 504.52 L0 542.37 L24.16 542.37
							 L24.16 504.52 ZM55.76 504.52 L55.76 542.37 L79.93 542.37 L79.93 504.52 L55.76 504.52 ZM42.21 492.08
							 L42.21 504.52 L52 504.52 L52 529.93 L55.76 529.93 L55.76 504.52 L66.37 504.52 L66.37 492.08 L42.21 492.08
							 ZM42.21 492.08 L52.04 492.08 L52.04 481.43 L27.88 481.43 L27.88 492.08 L37.72 492.08 L37.72 504.52 L42.21
							 504.52 L42.21 492.08 ZM37.72 492.08 L13.56 492.08 L13.56 504.52 L24.16 504.52 L24.16 529.93 L27.84 529.93
							 L27.84 504.52 L37.72 504.52 L37.72 492.08 Z" class="st4"/>
			</g>
			<g id="shape64-90" v:mID="64" v:groupContext="shape" transform="translate(18.1473,-29.2451)">
				<title>Sheet.64</title>
				<v:userDefs>
					<v:ud v:nameU="SurroundingRegionColor" v:prompt="" v:val="VT0(1):26"/>
				</v:userDefs>
				<path d="M65.94 531.06 A1.4599 1.4599 -180 1 0 63.02 531.06 A1.4599 1.4599 -180 1 0 65.94 531.06 ZM55.53 536.4 L65.94
							 536.4 L65.94 535.41 L55.53 535.41 L55.53 536.4 ZM55.53 539.38 L65.94 539.38 L65.94 538.4 L55.53 538.4
							 L55.53 539.38 ZM55.53 542.37 L65.94 542.37 L65.94 541.38 L55.53 541.38 L55.53 542.37 ZM37.72 531.06
							 A1.4599 1.4599 -180 1 0 34.8 531.06 A1.4599 1.4599 -180 1 0 37.72 531.06 ZM27.31 536.4 L37.72 536.4
							 L37.72 535.41 L27.31 535.41 L27.31 536.4 ZM27.31 539.38 L37.72 539.38 L37.72 538.4 L27.31 538.4 L27.31
							 539.38 ZM27.31 542.37 L37.72 542.37 L37.72 541.38 L27.31 541.38 L27.31 542.37 ZM10.41 531.06 A1.4599
							 1.4599 -180 1 0 7.49 531.06 A1.4599 1.4599 -180 1 0 10.41 531.06 ZM-0 536.4 L10.41 536.4 L10.41 535.41
							 L-0 535.41 L-0 536.4 ZM-0 539.38 L10.41 539.38 L10.41 538.4 L-0 538.4 L-0 539.38 ZM-0 542.37 L10.41
							 542.37 L10.41 541.38 L-0 541.38 L-0 542.37 Z" class="st5"/>
			</g>
		</g>
		<g id="shape128-93" v:mID="128" v:groupContext="shape" transform="translate(378.819,-238.364)">
			<title>Cloud.128</title>
			<v:userDefs>
				<v:ud v:nameU="visVersion" v:prompt="" v:val="VT0(15):26"/>
			</v:userDefs>
			<path d="M8.04 492.22 A12.8999 16.2773 0 0 1 14.23 460.96 A26.1595 33.0085 0 0 1 52.19 434.57 A30.0383 37.9029 0 0 1
						 84.71 428.7 A18.8367 23.7685 0 0 1 112.6 426.74 A21.4459 27.0609 0 0 1 146.69 436.52 A15.3345 19.3487 0
						 0 1 159.07 463.89 A18.9937 23.9658 0 0 1 143.58 502.98 A23.9621 30.2348 0 0 1 109.51 522.52 A28.2533 35.6494
						 0 0 1 63.04 530.35 A35.8147 45.1902 0 0 1 22.75 522.52 A14.1296 17.8291 0 0 1 8.04 492.22 Z" class="st1"/>
			<path d="M8.04 492.22 A12.8999 16.2773 0 0 1 14.23 460.96 A26.1595 33.0085 0 0 1 52.19 434.57 A30.0383 37.9029 0 0 1
						 84.71 428.7 A18.8367 23.7685 0 0 1 112.6 426.74 A21.4459 27.0609 0 0 1 146.69 436.52 A15.3345 19.3487 0
						 0 1 159.07 463.89 A18.9937 23.9658 0 0 1 143.58 502.98 A23.9621 30.2348 0 0 1 109.51 522.52 A28.2533 35.6494
						 0 0 1 63.04 530.35 A35.8147 45.1902 0 0 1 22.75 522.52 A14.1296 17.8291 0 0 1 8.04 492.22" class="st2"/>
			<path d="M16.55 493.2 A12.8642 16.2323 0 0 1 8.04 492.22" class="st2"/>
			<path d="M60.7 525.46 A12.9202 16.303 -180 0 0 63.04 530.35" class="st2"/>
			<path d="M110.67 516.66 A10.4298 13.1605 0 0 1 109.51 522.52" class="st2"/>
			<path d="M134.29 487.34 A10.9442 13.8096 0 0 1 143.58 502.98" class="st2"/>
			<path d="M154.43 469.75 A9.99156 12.6075 -180 0 0 159.07 463.89" class="st2"/>
			<path d="M56.83 438.48 A15.4079 19.4413 -180 0 0 52.19 434.57" class="st2"/>
		</g>
		<g id="shape159-102" v:mID="159" v:groupContext="shape" v:layerMember="1" transform="translate(229.148,-239.505)">
			<title>Dynamic connector</title>
			<path d="M0 542.37 L-99.78 626.72" class="st8"/>
		</g>
		<g id="shape191-105" v:mID="191" v:groupContext="shape" v:layerMember="1" transform="translate(229.148,-239.505)">
			<title>Dynamic connector.191</title>
			<path d="M0 542.37 L100.42 632.88" class="st8"/>
		</g>
		<g id="shape192-108" v:mID="192" v:groupContext="shape" v:layerMember="1" transform="translate(378.819,-310.462)">
			<title>Dynamic connector.192</title>
			<path d="M0 549.39 L-76.93 549.52" class="st8"/>
		</g>
		<g id="shape193-111" v:mID="193" v:groupContext="shape" v:layerMember="1" transform="translate(470.093,-239.505)">
			<title>Dynamic connector.193</title>
			<path d="M0 542.37 L-140.52 632.88" class="st8"/>
		</g>
		<g id="shape194-114" v:mID="194" v:groupContext="shape" v:layerMember="1" transform="translate(470.093,-239.505)">
			<title>Dynamic connector.194</title>
			<path d="M0 542.37 L59.67 632.88" class="st8"/>
		</g>
		<g id="shape195-117" v:mID="195" v:groupContext="shape" v:layerMember="1" transform="translate(446.798,-355.238)">
			<title>Dynamic connector.195</title>
			<path d="M0 542.37 L-108.05 475" class="st8"/>
		</g>
		<g id="shape196-120" v:mID="196" v:groupContext="shape" v:layerMember="1" transform="translate(338.748,-422.608)">
			<title>Dynamic connector.196</title>
			<path d="M0 542.37 L-101.46 604.12" class="st8"/>
		</g>
		<g id="shape198-123" v:mID="198" v:groupContext="shape" transform="translate(95.8031,451.659) rotate(-90)">
			<title>Simple Double Arrow</title>
			<v:userDefs>
				<v:ud v:nameU="visVersion" v:val="VT0(15):26"/>
				<v:ud v:nameU="ArrowType" v:prompt="" v:val="VT0(3):26"/>
			</v:userDefs>
			<path d="M0 542.37 L18.99 528.19 L18.99 535.28 L354.61 535.28 L354.61 528.19 L373.61 542.37 L354.61 556.54 L354.61 549.45
						 L18.99 549.45 L18.99 556.54 L0 542.37 Z" class="st9"/>
		</g>
		<g id="shape199-125" v:mID="199" v:groupContext="shape" transform="translate(610.429,-473.386)">
			<title>Sheet.199</title>
			<desc>Core</desc>
			<v:textBlock v:margins="rect(4,4,4,4)" v:tabSpace="42.5197"/>
			<v:textRect cx="28.1854" cy="532.367" width="56.38" height="20"/>
			<rect x="0" y="522.367" width="56.3708" height="20" class="st10"/>
			<text x="9.12" y="538.37" class="st11" v:langID="1031"><v:paragraph v:horizAlign="1"/><v:tabList/>Core</text>		</g>
		<g id="shape201-128" v:mID="201" v:groupContext="shape" transform="translate(613.767,-62.3622)">
			<title>Sheet.201</title>
			<desc>Edge</desc>
			<v:textBlock v:margins="rect(4,4,4,4)" v:tabSpace="42.5197"/>
			<v:textRect cx="24.8032" cy="532.367" width="49.61" height="20"/>
			<rect x="0" y="522.367" width="49.6063" height="20" class="st10"/>
			<text x="4.98" y="538.37" class="st11" v:langID="1031"><v:paragraph v:horizAlign="1"/><v:tabList/>Edge</text>		</g>
		<g id="shape202-131" v:mID="202" v:groupContext="shape" transform="translate(3.20965,-106.798)">
			<title>Sheet.202</title>
			<desc>IoT</desc>
			<v:textBlock v:margins="rect(4,4,4,4)" v:tabSpace="42.5197"/>
			<v:textRect cx="24.8032" cy="532.367" width="49.61" height="20"/>
			<rect x="0" y="522.367" width="49.6063" height="20" class="st10"/>
			<text x="4" y="541.37" class="st12" v:langID="1031"><v:paragraph/><v:tabList/>IoT</text>		</g>
		<g id="shape203-134" v:mID="203" v:groupContext="shape" transform="translate(3.58465,-308.355)">
			<title>Sheet.203</title>
			<desc>Fog</desc>
			<v:textBlock v:margins="rect(4,4,4,4)" v:tabSpace="42.5197"/>
			<v:textRect cx="35.4331" cy="532.367" width="70.87" height="20"/>
			<rect x="0" y="522.367" width="70.8662" height="20" class="st10"/>
			<text x="4" y="541.37" class="st12" v:langID="1031"><v:paragraph/><v:tabList/>Fog</text>		</g>
		<g id="shape204-137" v:mID="204" v:groupContext="shape" transform="translate(3.58465,-488.434)">
			<title>Sheet.204</title>
			<desc>Cloud</desc>
			<v:textBlock v:margins="rect(4,4,4,4)" v:tabSpace="42.5197"/>
			<v:textRect cx="40.9149" cy="532.367" width="81.83" height="20"/>
			<rect x="0" y="522.367" width="81.8297" height="20" class="st10"/>
			<text x="4" y="541.37" class="st12" v:langID="1031"><v:paragraph/><v:tabList/>Cloud</text>		</g>
		<g id="shape206-140" v:mID="206" v:groupContext="shape" transform="translate(31.9311,-198.794)">
			<title>Line with extensions</title>
			<v:userDefs>
				<v:ud v:nameU="AntiScale" v:val="VT0(1):26"/>
				<v:ud v:nameU="visVersion" v:val="VT0(15):26"/>
			</v:userDefs>
			<path d="M0 542.37 L581.1 542.37" class="st13"/>
		</g>
		<g id="shape207-143" v:mID="207" v:groupContext="shape" transform="translate(17.7579,-389.221)">
			<title>Line with extensions.207</title>
			<v:userDefs>
				<v:ud v:nameU="AntiScale" v:val="VT0(1):26"/>
				<v:ud v:nameU="visVersion" v:val="VT0(15):26"/>
			</v:userDefs>
			<path d="M14.17 542.37 L595.28 542.37" class="st13"/>
		</g>
		<g id="group275-146" transform="translate(164.537,-272.078)" v:mID="275" v:groupContext="group">
			<v:custProps>
				<v:cp v:nameU="AssetNumber" v:lbl="Asset Number" v:prompt="" v:type="0" v:format="" v:sortKey="Asset"
						v:invis="false" v:ask="false" v:langID="1033" v:cal="0"/>
				<v:cp v:nameU="SerialNumber" v:lbl="Serial Number" v:prompt="" v:type="0" v:format="" v:sortKey="Asset"
						v:invis="false" v:ask="false" v:langID="1033" v:cal="0"/>
				<v:cp v:nameU="Location" v:lbl="Location" v:prompt="" v:type="0" v:format="" v:sortKey="Asset" v:invis="false"
						v:ask="false" v:langID="1033" v:cal="0"/>
				<v:cp v:nameU="Building" v:lbl="Building" v:prompt="" v:type="0" v:format="" v:sortKey="Asset" v:invis="false"
						v:ask="false" v:langID="1033" v:cal="0"/>
				<v:cp v:nameU="Room" v:lbl="Room" v:prompt="" v:type="0" v:format="" v:sortKey="Asset" v:invis="false"
						v:ask="false" v:langID="1033" v:cal="0"/>
				<v:cp v:nameU="Manufacturer" v:lbl="Manufacturer" v:prompt="" v:type="0" v:format="" v:sortKey="Equipment"
						v:invis="false" v:ask="false" v:langID="1033" v:cal="0"/>
				<v:cp v:nameU="ProductNumber" v:lbl="Product Number" v:prompt="" v:type="0" v:format="" v:sortKey="Equipment"
						v:invis="false" v:ask="false" v:langID="1033" v:cal="0"/>
				<v:cp v:nameU="PartNumber" v:lbl="Part Number" v:prompt="" v:type="0" v:format="" v:sortKey="Equipment"
						v:invis="false" v:ask="false" v:langID="1033" v:cal="0"/>
				<v:cp v:nameU="ProductDescription" v:lbl="Product Description" v:prompt="" v:type="0" v:format=""
						v:sortKey="Equipment" v:invis="false" v:ask="false" v:langID="1033" v:cal="0"/>
				<v:cp v:nameU="NetworkName" v:lbl="Network Name" v:prompt="" v:type="0" v:format="" v:sortKey="Network"
						v:invis="false" v:ask="false" v:langID="1033" v:cal="0"/>
				<v:cp v:nameU="IPAddress" v:lbl="IP Address" v:prompt="" v:type="0" v:format="" v:sortKey="Network" v:invis="false"
						v:ask="false" v:langID="1033" v:cal="0"/>
				<v:cp v:nameU="SubnetMask" v:lbl="Subnet Mask" v:prompt="" v:type="0" v:format="" v:sortKey="Network"
						v:invis="false" v:ask="false" v:langID="1033" v:cal="0"/>
				<v:cp v:nameU="AdminInterface" v:lbl="Administrative Interface" v:prompt="" v:type="0" v:format=""
						v:sortKey="Network" v:invis="false" v:ask="false" v:langID="1033" v:cal="0"/>
				<v:cp v:nameU="NumberofPorts" v:lbl="Number of Ports" v:prompt="" v:type="0" v:format="" v:sortKey="Network"
						v:invis="false" v:ask="false" v:langID="1033" v:cal="0"/>
				<v:cp v:nameU="CommunityString" v:lbl="Community String" v:prompt="" v:type="0" v:format="" v:sortKey="Network"
						v:invis="false" v:ask="false" v:langID="1033" v:cal="0"/>
				<v:cp v:nameU="NetworkDescription" v:lbl="Network Description" v:prompt="" v:type="0" v:format=""
						v:sortKey="Network" v:invis="false" v:ask="false" v:langID="1033" v:cal="0"/>
				<v:cp v:nameU="MACAddress" v:lbl="MAC Address" v:prompt="" v:type="0" v:format="" v:sortKey="Network"
						v:invis="false" v:ask="false" v:langID="1033" v:cal="0"/>
				<v:cp v:nameU="CPU" v:lbl="CPU" v:prompt="" v:type="0" v:format="" v:sortKey="Workstation" v:invis="false"
						v:ask="false" v:langID="1033" v:cal="0"/>
				<v:cp v:nameU="Memory" v:lbl="Memory" v:prompt="" v:type="0" v:format="" v:sortKey="Workstation" v:invis="false"
						v:ask="false" v:langID="1033" v:cal="0"/>
				<v:cp v:nameU="OperatingSystem" v:lbl="Operating System" v:prompt="" v:type="0" v:format="" v:sortKey="Workstation"
						v:invis="false" v:ask="false" v:langID="1033" v:cal="0"/>
				<v:cp v:nameU="HardDriveSize" v:lbl="Hard Drive Capacity" v:prompt="" v:type="0" v:format=""
						v:sortKey="Workstation" v:invis="false" v:ask="false" v:langID="1033" v:cal="0"/>
				<v:cp v:nameU="Department" v:lbl="Department" v:prompt="" v:type="0" v:format="" v:sortKey="" v:invis="false"
						v:ask="false" v:langID="1033" v:cal="0"/>
				<v:cp v:nameU="ShapeClass" v:lbl="ShapeClass" v:prompt="" v:type="0" v:format="" v:sortKey="" v:invis="true"
						v:ask="false" v:langID="1033" v:cal="0" v:val="VT4(Equipment)"/>
				<v:cp v:nameU="ShapeType" v:lbl="ShapeType" v:prompt="" v:type="0" v:format="" v:sortKey="" v:invis="true"
						v:ask="false" v:langID="1033" v:cal="0" v:val="VT4(Server)"/>
				<v:cp v:nameU="BelongsTo" v:lbl="Belongs To" v:prompt="" v:type="0" v:format="" v:sortKey="" v:invis="true"
						v:ask="false" v:langID="1033" v:cal="0"/>
			</v:custProps>
			<v:userDefs>
				<v:ud v:nameU="visVersion" v:prompt="" v:val="VT0(15):26"/>
				<v:ud v:nameU="ShapeClass" v:prompt="" v:val="VT0(5):26"/>
				<v:ud v:nameU="SolSH" v:prompt="" v:val="VT15({BF0433D9-CD73-4EB5-8390-8653BE590246}):41"/>
				<v:ud v:nameU="visLegendShape" v:prompt="" v:val="VT0(2):26"/>
			</v:userDefs>
			<title>Server.25</title>
			<g id="shape276-147" v:mID="276" v:groupContext="shape" transform="translate(9.69201,0)">
				<title>Sheet.276</title>
				<rect x="0" y="488.764" width="34.2193" height="53.6033" class="st4"/>
			</g>
			<g id="shape277-149" v:mID="277" v:groupContext="shape" transform="translate(35.2672,-22.8822)">
				<title>Sheet.277</title>
				<ellipse cx="2.06855" cy="540.299" rx="2.06855" ry="2.06855" class="st4"/>
			</g>
			<g id="shape278-151" v:mID="278" v:groupContext="shape" transform="translate(22.7144,-8.78665)">
				<title>Sheet.278</title>
				<v:userDefs>
					<v:ud v:nameU="SurroundingRegionColor" v:prompt="" v:val="VT5(1)"/>
				</v:userDefs>
				<path d="M-0 542.37 L16.69 542.37 L16.69 541.03 L-0 541.03 L-0 542.37 ZM-0 538.3 L16.69 538.3 L16.69 536.96 L-0 536.96
							 L-0 538.3 ZM-0 534.24 L16.69 534.24 L16.69 532.9 L-0 532.9 L-0 534.24 Z" class="st5"/>
			</g>
		</g>
		<g id="group279-154" transform="translate(217.913,-272.818)" v:mID="279" v:groupContext="group">
			<v:custProps>
				<v:cp v:nameU="AssetNumber" v:lbl="Asset Number" v:prompt="" v:type="0" v:format="" v:sortKey="Asset"
						v:invis="false" v:ask="false" v:langID="1033" v:cal="0"/>
				<v:cp v:nameU="SerialNumber" v:lbl="Serial Number" v:prompt="" v:type="0" v:format="" v:sortKey="Asset"
						v:invis="false" v:ask="false" v:langID="1033" v:cal="0"/>
				<v:cp v:nameU="Location" v:lbl="Location" v:prompt="" v:type="0" v:format="" v:sortKey="Asset" v:invis="false"
						v:ask="false" v:langID="1033" v:cal="0"/>
				<v:cp v:nameU="Building" v:lbl="Building" v:prompt="" v:type="0" v:format="" v:sortKey="Asset" v:invis="false"
						v:ask="false" v:langID="1033" v:cal="0"/>
				<v:cp v:nameU="Room" v:lbl="Room" v:prompt="" v:type="0" v:format="" v:sortKey="Asset" v:invis="false"
						v:ask="false" v:langID="1033" v:cal="0"/>
				<v:cp v:nameU="Manufacturer" v:lbl="Manufacturer" v:prompt="" v:type="0" v:format="" v:sortKey="Equipment"
						v:invis="false" v:ask="false" v:langID="1033" v:cal="0"/>
				<v:cp v:nameU="ProductNumber" v:lbl="Product Number" v:prompt="" v:type="0" v:format="" v:sortKey="Equipment"
						v:invis="false" v:ask="false" v:langID="1033" v:cal="0"/>
				<v:cp v:nameU="PartNumber" v:lbl="Part Number" v:prompt="" v:type="0" v:format="" v:sortKey="Equipment"
						v:invis="false" v:ask="false" v:langID="1033" v:cal="0"/>
				<v:cp v:nameU="ProductDescription" v:lbl="Product Description" v:prompt="" v:type="0" v:format=""
						v:sortKey="Equipment" v:invis="false" v:ask="false" v:langID="1033" v:cal="0"/>
				<v:cp v:nameU="NetworkName" v:lbl="Network Name" v:prompt="" v:type="0" v:format="" v:sortKey="Network"
						v:invis="false" v:ask="false" v:langID="1033" v:cal="0"/>
				<v:cp v:nameU="IPAddress" v:lbl="IP Address" v:prompt="" v:type="0" v:format="" v:sortKey="Network" v:invis="false"
						v:ask="false" v:langID="1033" v:cal="0"/>
				<v:cp v:nameU="SubnetMask" v:lbl="Subnet Mask" v:prompt="" v:type="0" v:format="" v:sortKey="Network"
						v:invis="false" v:ask="false" v:langID="1033" v:cal="0"/>
				<v:cp v:nameU="AdminInterface" v:lbl="Administrative Interface" v:prompt="" v:type="0" v:format=""
						v:sortKey="Network" v:invis="false" v:ask="false" v:langID="1033" v:cal="0"/>
				<v:cp v:nameU="NumberofPorts" v:lbl="Number of Ports" v:prompt="" v:type="0" v:format="" v:sortKey="Network"
						v:invis="false" v:ask="false" v:langID="1033" v:cal="0"/>
				<v:cp v:nameU="CommunityString" v:lbl="Community String" v:prompt="" v:type="0" v:format="" v:sortKey="Network"
						v:invis="false" v:ask="false" v:langID="1033" v:cal="0"/>
				<v:cp v:nameU="NetworkDescription" v:lbl="Network Description" v:prompt="" v:type="0" v:format=""
						v:sortKey="Network" v:invis="false" v:ask="false" v:langID="1033" v:cal="0"/>
				<v:cp v:nameU="MACAddress" v:lbl="MAC Address" v:prompt="" v:type="0" v:format="" v:sortKey="Network"
						v:invis="false" v:ask="false" v:langID="1033" v:cal="0"/>
				<v:cp v:nameU="CPU" v:lbl="CPU" v:prompt="" v:type="0" v:format="" v:sortKey="Workstation" v:invis="false"
						v:ask="false" v:langID="1033" v:cal="0"/>
				<v:cp v:nameU="Memory" v:lbl="Memory" v:prompt="" v:type="0" v:format="" v:sortKey="Workstation" v:invis="false"
						v:ask="false" v:langID="1033" v:cal="0"/>
				<v:cp v:nameU="OperatingSystem" v:lbl="Operating System" v:prompt="" v:type="0" v:format="" v:sortKey="Workstation"
						v:invis="false" v:ask="false" v:langID="1033" v:cal="0"/>
				<v:cp v:nameU="HardDriveSize" v:lbl="Hard Drive Capacity" v:prompt="" v:type="0" v:format=""
						v:sortKey="Workstation" v:invis="false" v:ask="false" v:langID="1033" v:cal="0"/>
				<v:cp v:nameU="Department" v:lbl="Department" v:prompt="" v:type="0" v:format="" v:sortKey="" v:invis="false"
						v:ask="false" v:langID="1033" v:cal="0"/>
				<v:cp v:nameU="ShapeClass" v:lbl="ShapeClass" v:prompt="" v:type="0" v:format="" v:sortKey="" v:invis="true"
						v:ask="false" v:langID="1033" v:cal="0" v:val="VT4(Equipment)"/>
				<v:cp v:nameU="ShapeType" v:lbl="ShapeType" v:prompt="" v:type="0" v:format="" v:sortKey="" v:invis="true"
						v:ask="false" v:langID="1033" v:cal="0" v:val="VT4(Server)"/>
				<v:cp v:nameU="BelongsTo" v:lbl="Belongs To" v:prompt="" v:type="0" v:format="" v:sortKey="" v:invis="true"
						v:ask="false" v:langID="1033" v:cal="0"/>
			</v:custProps>
			<v:userDefs>
				<v:ud v:nameU="visVersion" v:prompt="" v:val="VT0(15):26"/>
				<v:ud v:nameU="ShapeClass" v:prompt="" v:val="VT0(5):26"/>
				<v:ud v:nameU="SolSH" v:prompt="" v:val="VT15({BF0433D9-CD73-4EB5-8390-8653BE590246}):41"/>
				<v:ud v:nameU="visLegendShape" v:prompt="" v:val="VT0(2):26"/>
			</v:userDefs>
			<title>Server.279</title>
			<g id="shape280-155" v:mID="280" v:groupContext="shape" transform="translate(9.69201,0)">
				<title>Sheet.280</title>
				<rect x="0" y="488.764" width="34.2193" height="53.6033" class="st4"/>
			</g>
			<g id="shape281-157" v:mID="281" v:groupContext="shape" transform="translate(35.2672,-22.8822)">
				<title>Sheet.281</title>
				<ellipse cx="2.06855" cy="540.299" rx="2.06855" ry="2.06855" class="st4"/>
			</g>
			<g id="shape282-159" v:mID="282" v:groupContext="shape" transform="translate(22.7144,-8.78665)">
				<title>Sheet.282</title>
				<v:userDefs>
					<v:ud v:nameU="SurroundingRegionColor" v:prompt="" v:val="VT5(1)"/>
				</v:userDefs>
				<path d="M-0 542.37 L16.69 542.37 L16.69 541.03 L-0 541.03 L-0 542.37 ZM-0 538.3 L16.69 538.3 L16.69 536.96 L-0 536.96
							 L-0 538.3 ZM-0 534.24 L16.69 534.24 L16.69 532.9 L-0 532.9 L-0 534.24 Z" class="st5"/>
			</g>
		</g>
		<g id="group291-162" transform="translate(407.14,-272.539)" v:mID="291" v:groupContext="group">
			<v:custProps>
				<v:cp v:nameU="AssetNumber" v:lbl="Asset Number" v:prompt="" v:type="0" v:format="" v:sortKey="Asset"
						v:invis="false" v:ask="false" v:langID="1033" v:cal="0"/>
				<v:cp v:nameU="SerialNumber" v:lbl="Serial Number" v:prompt="" v:type="0" v:format="" v:sortKey="Asset"
						v:invis="false" v:ask="false" v:langID="1033" v:cal="0"/>
				<v:cp v:nameU="Location" v:lbl="Location" v:prompt="" v:type="0" v:format="" v:sortKey="Asset" v:invis="false"
						v:ask="false" v:langID="1033" v:cal="0"/>
				<v:cp v:nameU="Building" v:lbl="Building" v:prompt="" v:type="0" v:format="" v:sortKey="Asset" v:invis="false"
						v:ask="false" v:langID="1033" v:cal="0"/>
				<v:cp v:nameU="Room" v:lbl="Room" v:prompt="" v:type="0" v:format="" v:sortKey="Asset" v:invis="false"
						v:ask="false" v:langID="1033" v:cal="0"/>
				<v:cp v:nameU="Manufacturer" v:lbl="Manufacturer" v:prompt="" v:type="0" v:format="" v:sortKey="Equipment"
						v:invis="false" v:ask="false" v:langID="1033" v:cal="0"/>
				<v:cp v:nameU="ProductNumber" v:lbl="Product Number" v:prompt="" v:type="0" v:format="" v:sortKey="Equipment"
						v:invis="false" v:ask="false" v:langID="1033" v:cal="0"/>
				<v:cp v:nameU="PartNumber" v:lbl="Part Number" v:prompt="" v:type="0" v:format="" v:sortKey="Equipment"
						v:invis="false" v:ask="false" v:langID="1033" v:cal="0"/>
				<v:cp v:nameU="ProductDescription" v:lbl="Product Description" v:prompt="" v:type="0" v:format=""
						v:sortKey="Equipment" v:invis="false" v:ask="false" v:langID="1033" v:cal="0"/>
				<v:cp v:nameU="NetworkName" v:lbl="Network Name" v:prompt="" v:type="0" v:format="" v:sortKey="Network"
						v:invis="false" v:ask="false" v:langID="1033" v:cal="0"/>
				<v:cp v:nameU="IPAddress" v:lbl="IP Address" v:prompt="" v:type="0" v:format="" v:sortKey="Network" v:invis="false"
						v:ask="false" v:langID="1033" v:cal="0"/>
				<v:cp v:nameU="SubnetMask" v:lbl="Subnet Mask" v:prompt="" v:type="0" v:format="" v:sortKey="Network"
						v:invis="false" v:ask="false" v:langID="1033" v:cal="0"/>
				<v:cp v:nameU="AdminInterface" v:lbl="Administrative Interface" v:prompt="" v:type="0" v:format=""
						v:sortKey="Network" v:invis="false" v:ask="false" v:langID="1033" v:cal="0"/>
				<v:cp v:nameU="NumberofPorts" v:lbl="Number of Ports" v:prompt="" v:type="0" v:format="" v:sortKey="Network"
						v:invis="false" v:ask="false" v:langID="1033" v:cal="0"/>
				<v:cp v:nameU="CommunityString" v:lbl="Community String" v:prompt="" v:type="0" v:format="" v:sortKey="Network"
						v:invis="false" v:ask="false" v:langID="1033" v:cal="0"/>
				<v:cp v:nameU="NetworkDescription" v:lbl="Network Description" v:prompt="" v:type="0" v:format=""
						v:sortKey="Network" v:invis="false" v:ask="false" v:langID="1033" v:cal="0"/>
				<v:cp v:nameU="MACAddress" v:lbl="MAC Address" v:prompt="" v:type="0" v:format="" v:sortKey="Network"
						v:invis="false" v:ask="false" v:langID="1033" v:cal="0"/>
				<v:cp v:nameU="CPU" v:lbl="CPU" v:prompt="" v:type="0" v:format="" v:sortKey="Workstation" v:invis="false"
						v:ask="false" v:langID="1033" v:cal="0"/>
				<v:cp v:nameU="Memory" v:lbl="Memory" v:prompt="" v:type="0" v:format="" v:sortKey="Workstation" v:invis="false"
						v:ask="false" v:langID="1033" v:cal="0"/>
				<v:cp v:nameU="OperatingSystem" v:lbl="Operating System" v:prompt="" v:type="0" v:format="" v:sortKey="Workstation"
						v:invis="false" v:ask="false" v:langID="1033" v:cal="0"/>
				<v:cp v:nameU="HardDriveSize" v:lbl="Hard Drive Capacity" v:prompt="" v:type="0" v:format=""
						v:sortKey="Workstation" v:invis="false" v:ask="false" v:langID="1033" v:cal="0"/>
				<v:cp v:nameU="Department" v:lbl="Department" v:prompt="" v:type="0" v:format="" v:sortKey="" v:invis="false"
						v:ask="false" v:langID="1033" v:cal="0"/>
				<v:cp v:nameU="ShapeClass" v:lbl="ShapeClass" v:prompt="" v:type="0" v:format="" v:sortKey="" v:invis="true"
						v:ask="false" v:langID="1033" v:cal="0" v:val="VT4(Equipment)"/>
				<v:cp v:nameU="ShapeType" v:lbl="ShapeType" v:prompt="" v:type="0" v:format="" v:sortKey="" v:invis="true"
						v:ask="false" v:langID="1033" v:cal="0" v:val="VT4(Server)"/>
				<v:cp v:nameU="BelongsTo" v:lbl="Belongs To" v:prompt="" v:type="0" v:format="" v:sortKey="" v:invis="true"
						v:ask="false" v:langID="1033" v:cal="0"/>
			</v:custProps>
			<v:userDefs>
				<v:ud v:nameU="visVersion" v:prompt="" v:val="VT0(15):26"/>
				<v:ud v:nameU="ShapeClass" v:prompt="" v:val="VT0(5):26"/>
				<v:ud v:nameU="SolSH" v:prompt="" v:val="VT15({BF0433D9-CD73-4EB5-8390-8653BE590246}):41"/>
				<v:ud v:nameU="visLegendShape" v:prompt="" v:val="VT0(2):26"/>
			</v:userDefs>
			<title>Server.291</title>
			<g id="shape292-163" v:mID="292" v:groupContext="shape" transform="translate(9.69201,0)">
				<title>Sheet.292</title>
				<rect x="0" y="488.764" width="34.2193" height="53.6033" class="st4"/>
			</g>
			<g id="shape293-165" v:mID="293" v:groupContext="shape" transform="translate(35.2672,-22.8822)">
				<title>Sheet.293</title>
				<ellipse cx="2.06855" cy="540.299" rx="2.06855" ry="2.06855" class="st4"/>
			</g>
			<g id="shape294-167" v:mID="294" v:groupContext="shape" transform="translate(22.7144,-8.78665)">
				<title>Sheet.294</title>
				<v:userDefs>
					<v:ud v:nameU="SurroundingRegionColor" v:prompt="" v:val="VT5(1)"/>
				</v:userDefs>
				<path d="M-0 542.37 L16.69 542.37 L16.69 541.03 L-0 541.03 L-0 542.37 ZM-0 538.3 L16.69 538.3 L16.69 536.96 L-0 536.96
							 L-0 538.3 ZM-0 534.24 L16.69 534.24 L16.69 532.9 L-0 532.9 L-0 534.24 Z" class="st5"/>
			</g>
		</g>
		<g id="group295-170" transform="translate(460.516,-273.279)" v:mID="295" v:groupContext="group">
			<v:custProps>
				<v:cp v:nameU="AssetNumber" v:lbl="Asset Number" v:prompt="" v:type="0" v:format="" v:sortKey="Asset"
						v:invis="false" v:ask="false" v:langID="1033" v:cal="0"/>
				<v:cp v:nameU="SerialNumber" v:lbl="Serial Number" v:prompt="" v:type="0" v:format="" v:sortKey="Asset"
						v:invis="false" v:ask="false" v:langID="1033" v:cal="0"/>
				<v:cp v:nameU="Location" v:lbl="Location" v:prompt="" v:type="0" v:format="" v:sortKey="Asset" v:invis="false"
						v:ask="false" v:langID="1033" v:cal="0"/>
				<v:cp v:nameU="Building" v:lbl="Building" v:prompt="" v:type="0" v:format="" v:sortKey="Asset" v:invis="false"
						v:ask="false" v:langID="1033" v:cal="0"/>
				<v:cp v:nameU="Room" v:lbl="Room" v:prompt="" v:type="0" v:format="" v:sortKey="Asset" v:invis="false"
						v:ask="false" v:langID="1033" v:cal="0"/>
				<v:cp v:nameU="Manufacturer" v:lbl="Manufacturer" v:prompt="" v:type="0" v:format="" v:sortKey="Equipment"
						v:invis="false" v:ask="false" v:langID="1033" v:cal="0"/>
				<v:cp v:nameU="ProductNumber" v:lbl="Product Number" v:prompt="" v:type="0" v:format="" v:sortKey="Equipment"
						v:invis="false" v:ask="false" v:langID="1033" v:cal="0"/>
				<v:cp v:nameU="PartNumber" v:lbl="Part Number" v:prompt="" v:type="0" v:format="" v:sortKey="Equipment"
						v:invis="false" v:ask="false" v:langID="1033" v:cal="0"/>
				<v:cp v:nameU="ProductDescription" v:lbl="Product Description" v:prompt="" v:type="0" v:format=""
						v:sortKey="Equipment" v:invis="false" v:ask="false" v:langID="1033" v:cal="0"/>
				<v:cp v:nameU="NetworkName" v:lbl="Network Name" v:prompt="" v:type="0" v:format="" v:sortKey="Network"
						v:invis="false" v:ask="false" v:langID="1033" v:cal="0"/>
				<v:cp v:nameU="IPAddress" v:lbl="IP Address" v:prompt="" v:type="0" v:format="" v:sortKey="Network" v:invis="false"
						v:ask="false" v:langID="1033" v:cal="0"/>
				<v:cp v:nameU="SubnetMask" v:lbl="Subnet Mask" v:prompt="" v:type="0" v:format="" v:sortKey="Network"
						v:invis="false" v:ask="false" v:langID="1033" v:cal="0"/>
				<v:cp v:nameU="AdminInterface" v:lbl="Administrative Interface" v:prompt="" v:type="0" v:format=""
						v:sortKey="Network" v:invis="false" v:ask="false" v:langID="1033" v:cal="0"/>
				<v:cp v:nameU="NumberofPorts" v:lbl="Number of Ports" v:prompt="" v:type="0" v:format="" v:sortKey="Network"
						v:invis="false" v:ask="false" v:langID="1033" v:cal="0"/>
				<v:cp v:nameU="CommunityString" v:lbl="Community String" v:prompt="" v:type="0" v:format="" v:sortKey="Network"
						v:invis="false" v:ask="false" v:langID="1033" v:cal="0"/>
				<v:cp v:nameU="NetworkDescription" v:lbl="Network Description" v:prompt="" v:type="0" v:format=""
						v:sortKey="Network" v:invis="false" v:ask="false" v:langID="1033" v:cal="0"/>
				<v:cp v:nameU="MACAddress" v:lbl="MAC Address" v:prompt="" v:type="0" v:format="" v:sortKey="Network"
						v:invis="false" v:ask="false" v:langID="1033" v:cal="0"/>
				<v:cp v:nameU="CPU" v:lbl="CPU" v:prompt="" v:type="0" v:format="" v:sortKey="Workstation" v:invis="false"
						v:ask="false" v:langID="1033" v:cal="0"/>
				<v:cp v:nameU="Memory" v:lbl="Memory" v:prompt="" v:type="0" v:format="" v:sortKey="Workstation" v:invis="false"
						v:ask="false" v:langID="1033" v:cal="0"/>
				<v:cp v:nameU="OperatingSystem" v:lbl="Operating System" v:prompt="" v:type="0" v:format="" v:sortKey="Workstation"
						v:invis="false" v:ask="false" v:langID="1033" v:cal="0"/>
				<v:cp v:nameU="HardDriveSize" v:lbl="Hard Drive Capacity" v:prompt="" v:type="0" v:format=""
						v:sortKey="Workstation" v:invis="false" v:ask="false" v:langID="1033" v:cal="0"/>
				<v:cp v:nameU="Department" v:lbl="Department" v:prompt="" v:type="0" v:format="" v:sortKey="" v:invis="false"
						v:ask="false" v:langID="1033" v:cal="0"/>
				<v:cp v:nameU="ShapeClass" v:lbl="ShapeClass" v:prompt="" v:type="0" v:format="" v:sortKey="" v:invis="true"
						v:ask="false" v:langID="1033" v:cal="0" v:val="VT4(Equipment)"/>
				<v:cp v:nameU="ShapeType" v:lbl="ShapeType" v:prompt="" v:type="0" v:format="" v:sortKey="" v:invis="true"
						v:ask="false" v:langID="1033" v:cal="0" v:val="VT4(Server)"/>
				<v:cp v:nameU="BelongsTo" v:lbl="Belongs To" v:prompt="" v:type="0" v:format="" v:sortKey="" v:invis="true"
						v:ask="false" v:langID="1033" v:cal="0"/>
			</v:custProps>
			<v:userDefs>
				<v:ud v:nameU="visVersion" v:prompt="" v:val="VT0(15):26"/>
				<v:ud v:nameU="ShapeClass" v:prompt="" v:val="VT0(5):26"/>
				<v:ud v:nameU="SolSH" v:prompt="" v:val="VT15({BF0433D9-CD73-4EB5-8390-8653BE590246}):41"/>
				<v:ud v:nameU="visLegendShape" v:prompt="" v:val="VT0(2):26"/>
			</v:userDefs>
			<title>Server.295</title>
			<g id="shape296-171" v:mID="296" v:groupContext="shape" transform="translate(9.69201,0)">
				<title>Sheet.296</title>
				<rect x="0" y="488.764" width="34.2193" height="53.6033" class="st4"/>
			</g>
			<g id="shape297-173" v:mID="297" v:groupContext="shape" transform="translate(35.2672,-22.8822)">
				<title>Sheet.297</title>
				<ellipse cx="2.06855" cy="540.299" rx="2.06855" ry="2.06855" class="st4"/>
			</g>
			<g id="shape298-175" v:mID="298" v:groupContext="shape" transform="translate(22.7144,-8.78665)">
				<title>Sheet.298</title>
				<v:userDefs>
					<v:ud v:nameU="SurroundingRegionColor" v:prompt="" v:val="VT5(1)"/>
				</v:userDefs>
				<path d="M-0 542.37 L16.69 542.37 L16.69 541.03 L-0 541.03 L-0 542.37 ZM-0 538.3 L16.69 538.3 L16.69 536.96 L-0 536.96
							 L-0 538.3 ZM-0 534.24 L16.69 534.24 L16.69 532.9 L-0 532.9 L-0 534.24 Z" class="st5"/>
			</g>
		</g>
	</g>
</svg>
